{
    "description": "Optimization instructions default trial template",
    "PROLOG": "[manipulation instructions]\n\nUse the numeric keypad to move the avatar.\n\nUse the STOP button or the PAUSE button to halt all sounds.\n\nUse the RESTART button or the RESUME button to continue.)",
    "SET ALD": "Set your listening device to program {program} then press button number {program} above.\n\nThen press the START button below to listen.",
    "TASK": ["[Scenario and task description]\n\nYou will hear two people talking in a restaurant. Adjust Noise level to make the conversation barely audible.)\n\nPress the RATE button, respond to questions and press the SAVE button.\n\n(For additional tasks, copy the text below, press the green [+] button, and paste into the new task)\n\nTo listen again with a different program, adjust your listening device, press corresponding program button above and press the RESTART button or the RESUME button.\n\nPress the RATE button, respond to questions and press the SAVE button.",
	     null,
	     null,
	     null,
	     null],
    "NEXT": "To continue to the next scenario, press the NEXT button.",
    "QUIT": "To exit the application, press the QUIT button."
}
