{
  "description": "Exercise description",
  "hostname": "beslime-833",
  "kymasound": "Dragana Pause",
  "programs": 6,
  "ratings": [
      {"name": "clarity",
       "question": "I can understand...",
       "subtype": "radio",
       "options": [["Nothing",    1],
                   ["",           2],
                   ["Some",       3],
                   ["",           4],
                   ["Everything", 5]]},

      {"name": "quality",
       "question": "The quality of the sound is...",
       "subtype": "radio",
       "options": [["Very poor",  1],
                   ["",           2],
                   ["Moderate",   3],
                   ["",           4],
                   ["Excellent",  5]]},

      {"name": "effort",
       "question": "Listening is...",
       "subtype": "radio",
       "options": [["Very difficult", 1],
                   ["",               2],
                   ["So-so",          3],
                   ["",               4],
                   ["Very easy",      5]]}
  ],

  "presets": [
    {"description": "ALD program 1, Target 8, Signal level 0 dB, Noise levels 0 dB",
     "program": 1,
     "range": [-12, 12],
     "step": 3,
     "rsize": [200, 250],
     "targets": [8],
     "noise":  [{"level": 0, "offset": 0, "sample": 1, "state": 1},
                {"level": 0, "offset": 0, "sample": 1, "state": 1},
                {"level": 0, "offset": 0, "sample": 1, "state": 1},
                {"level": 0, "offset": 0, "sample": 1, "state": 1},
                {"level": 0, "offset": 0, "sample": 1, "state": 1},
                {"level": 0, "offset": 0, "sample": 1, "state": 1},
                {"level": 0, "offset": 0, "sample": 1, "state": 1},
                {"level": 0, "offset": 0, "sample": 1, "state": 1}],
     "signal": [{"level": 0, "offset": 0, "sample": 1, "state": 0},
                {"level": 0, "offset": 0, "sample": 1, "state": 0},
                {"level": 0, "offset": 0, "sample": 1, "state": 0},
                {"level": 0, "offset": 0, "sample": 1, "state": 0},
                {"level": 0, "offset": 0, "sample": 1, "state": 0},
                {"level": 0, "offset": 0, "sample": 1, "state": 0},
                {"level": 0, "offset": 0, "sample": 1, "state": 0},
                {"level": 0, "offset": 0, "sample": 1, "state": 1}]},

    {"description": "ALD program 3, Target 6, Signal level 0 dB, Noise levels RANDOM",
     "program": 3,
     "range": [-12, 12],
     "step": 3,
     "rsize": [200, 250],
     "targets": [6],
     "noise":  [{"level": 99, "offset": 0, "sample": 2, "state": 1},
                {"level": 99, "offset": 0, "sample": 2, "state": 1},
                {"level": 99, "offset": 0, "sample": 2, "state": 1},
                {"level": 99, "offset": 0, "sample": 2, "state": 1},
                {"level": 99, "offset": 0, "sample": 2, "state": 1},
                {"level": 99, "offset": 0, "sample": 2, "state": 1},
                {"level": 99, "offset": 0, "sample": 2, "state": 1},
                {"level": 99, "offset": 0, "sample": 2, "state": 1}],
     "signal": [{"level": 0,  "offset": 0, "sample": 2, "state": 0},
                {"level": 0,  "offset": 0, "sample": 2, "state": 0},
                {"level": 0,  "offset": 0, "sample": 2, "state": 0},
                {"level": 0,  "offset": 0, "sample": 2, "state": 0},
                {"level": 0,  "offset": 0, "sample": 2, "state": 0},
                {"level": 0,  "offset": 0, "sample": 2, "state": 1},
                {"level": 0,  "offset": 0, "sample": 2, "state": 0},
                {"level": 0,  "offset": 0, "sample": 2, "state": 0}]},

    {"description": "ALD program 2, Target 1, Signal level 0 dB, Noise levels 0 dB",
     "program": 2,
     "range": [-12, 12],
     "step": 3,
     "rsize": [200, 250],
     "targets": [1],
     "noise":  [{"level": 0, "offset": 0, "sample": 3, "state": 1},
                {"level": 0, "offset": 0, "sample": 3, "state": 1},
                {"level": 0, "offset": 0, "sample": 3, "state": 1},
                {"level": 0, "offset": 0, "sample": 3, "state": 1},
                {"level": 0, "offset": 0, "sample": 3, "state": 1},
                {"level": 0, "offset": 0, "sample": 3, "state": 1},
                {"level": 0, "offset": 0, "sample": 3, "state": 1},
                {"level": 0, "offset": 0, "sample": 3, "state": 1}],
     "signal": [{"level": 0, "offset": 0, "sample": 3, "state": 1},
                {"level": 0, "offset": 0, "sample": 3, "state": 0},
                {"level": 0, "offset": 0, "sample": 3, "state": 0},
                {"level": 0, "offset": 0, "sample": 3, "state": 0},
                {"level": 0, "offset": 0, "sample": 3, "state": 0},
                {"level": 0, "offset": 0, "sample": 3, "state": 0},
                {"level": 0, "offset": 0, "sample": 3, "state": 0},
                {"level": 0, "offset": 0, "sample": 3, "state": 0}]},

    {"description": "ALD program 4, Target 3, Signal level 0 dB, Noise levels 0 dB",
     "program": 4,
     "range": [-12, 12],
     "step": 3,
     "rsize": [200, 250],
     "targets": [3],
     "noise":  [{"level": 0, "offset": 0, "sample": 4, "state": 1},
                {"level": 0, "offset": 0, "sample": 4, "state": 1},
                {"level": 0, "offset": 0, "sample": 4, "state": 1},
                {"level": 0, "offset": 0, "sample": 4, "state": 1},
                {"level": 0, "offset": 0, "sample": 4, "state": 1},
                {"level": 0, "offset": 0, "sample": 4, "state": 1},
                {"level": 0, "offset": 0, "sample": 4, "state": 1},
                {"level": 0, "offset": 0, "sample": 4, "state": 1}],
     "signal": [{"level": 0, "offset": 0, "sample": 4, "state": 0},
                {"level": 0, "offset": 0, "sample": 4, "state": 0},
                {"level": 0, "offset": 0, "sample": 4, "state": 1},
                {"level": 0, "offset": 0, "sample": 4, "state": 0},
                {"level": 0, "offset": 0, "sample": 4, "state": 0},
                {"level": 0, "offset": 0, "sample": 4, "state": 0},
                {"level": 0, "offset": 0, "sample": 4, "state": 0},
                {"level": 0, "offset": 0, "sample": 4, "state": 0}]},

    {"description": "ALD program 6, Target 4, Signal level 0 dB, Noise levels 0 dB",
     "program": 6,
     "range": [-12, 12],
     "step": 3,
     "rsize": [200, 250],
     "targets": [4],
     "noise":  [{"level": 0, "offset": 0, "sample": 5, "state": 1},
                {"level": 0, "offset": 0, "sample": 5, "state": 1},
                {"level": 0, "offset": 0, "sample": 5, "state": 1},
                {"level": 0, "offset": 0, "sample": 5, "state": 1},
                {"level": 0, "offset": 0, "sample": 5, "state": 1},
                {"level": 0, "offset": 0, "sample": 5, "state": 1},
                {"level": 0, "offset": 0, "sample": 5, "state": 1},
                {"level": 0, "offset": 0, "sample": 5, "state": 1}],
     "signal": [{"level": 0, "offset": 0, "sample": 5, "state": 0},
                {"level": 0, "offset": 0, "sample": 5, "state": 0},
                {"level": 0, "offset": 0, "sample": 5, "state": 0},
                {"level": 0, "offset": 0, "sample": 5, "state": 1},
                {"level": 0, "offset": 0, "sample": 5, "state": 0},
                {"level": 0, "offset": 0, "sample": 5, "state": 0},
                {"level": 0, "offset": 0, "sample": 5, "state": 0},
                {"level": 0, "offset": 0, "sample": 5, "state": 0}]},

    {"description": "ALD program 1, Target 1, Signal level 0 dB, Noise levels 0 dB",
     "program": 1,
     "range": [-12, 12],
     "step": 3,
     "rsize": [200, 250],
     "targets": [1],
     "noise":  [{"level": 0, "offset": 0, "sample": 6, "state": 1},
                {"level": 0, "offset": 0, "sample": 6, "state": 1},
                {"level": 0, "offset": 0, "sample": 6, "state": 1},
                {"level": 0, "offset": 0, "sample": 6, "state": 1},
                {"level": 0, "offset": 0, "sample": 6, "state": 1},
                {"level": 0, "offset": 0, "sample": 6, "state": 1},
                {"level": 0, "offset": 0, "sample": 6, "state": 1},
                {"level": 0, "offset": 0, "sample": 6, "state": 1}],
     "signal": [{"level": 0, "offset": 0, "sample": 6, "state": 1},
                {"level": 0, "offset": 0, "sample": 6, "state": 0},
                {"level": 0, "offset": 0, "sample": 6, "state": 0},
                {"level": 0, "offset": 0, "sample": 6, "state": 0},
                {"level": 0, "offset": 0, "sample": 6, "state": 0},
                {"level": 0, "offset": 0, "sample": 6, "state": 0},
                {"level": 0, "offset": 0, "sample": 6, "state": 0},
                {"level": 0, "offset": 0, "sample": 6, "state": 0}]}]
}
