<?xml version="1.0" encoding="UTF-8" standalone="no"?>
<svg
   xmlns:dc="http://purl.org/dc/elements/1.1/"
   xmlns:cc="http://creativecommons.org/ns#"
   xmlns:rdf="http://www.w3.org/1999/02/22-rdf-syntax-ns#"
   xmlns:svg="http://www.w3.org/2000/svg"
   xmlns="http://www.w3.org/2000/svg"
   id="svg2"
   preserveAspectRatio="xMidYMid meet"
   viewBox="0 0 78.400003 49.6"
   height="62"
   width="98"
   version="1.0">
  <defs
     id="defs14" />
  <metadata
     id="metadata4">
Created by potrace 1.13, written by Peter Selinger 2001-2015
<rdf:RDF>
  <cc:Work
     rdf:about="">
    <dc:format>image/svg+xml</dc:format>
    <dc:type
       rdf:resource="http://purl.org/dc/dcmitype/StillImage" />
    <dc:title></dc:title>
  </cc:Work>
</rdf:RDF>
</metadata>
  <g
     transform="translate(-119.11095,1.3343748)"
     id="g4781">
    <path
       id="path8"
       transform="matrix(0.80000008,0,0,0.80000008,-1.2207032e-5,-1.5258791e-6)"
       d="m 224.03516,0.00976563 c -0.63261,0.05040667 -1.0648,0.30515834 -1.58399,0.78906249 -0.34277,0.32260278 -0.6742,0.60483728 -0.72461,0.62499998 -0.17137,0.070569 -0.91884,1.0368899 -1.14062,1.4804688 -0.23188,0.4637414 -0.69537,1.9672568 -0.75586,2.4511719 -0.0201,0.1613013 -0.0801,0.3532587 -0.14063,0.4238281 -0.13106,0.1613013 -0.63576,1.4602151 -0.66601,1.7324219 -0.0201,0.1108949 -0.10093,0.4534192 -0.18164,0.7558593 -0.30244,1.0282963 -0.68561,3.8517129 -0.7461,5.3437499 -0.1613,4.284568 -0.14948,5.575733 0.0117,6.462891 0.0908,0.493986 0.14123,0.936237 0.1211,0.976562 -0.0302,0.04032 -0.70749,0.03088 -1.50391,-0.01953 -0.78635,-0.04032 -2.31671,-0.09117 -3.39649,-0.111328 l -1.94531,-0.0293 -0.57422,-0.544922 c -0.31252,-0.30244 -0.76749,-0.714705 -1.01953,-0.90625 -0.79642,-0.635124 -3.48725,-2.199219 -3.76953,-2.199219 -0.0908,0 -0.42349,-0.129714 -0.74609,-0.291015 -0.31253,-0.15122 -0.74729,-0.313507 -0.95899,-0.34375 -0.21171,-0.03025 -0.52393,-0.130288 -0.69531,-0.210938 -0.17139,-0.09074 -0.41191,-0.162109 -0.54297,-0.162109 -0.17137,0 -0.25301,-0.08977 -0.34375,-0.341797 -0.13106,-0.393171 -1.21022,-1.472656 -1.48242,-1.472656 -0.27219,0 -1.69399,-0.685982 -1.67383,-0.796875 0.0404,-0.15122 -0.61373,-0.241921 -1.41015,-0.191406 -0.78634,0.05041 -1.98633,0.504142 -1.98633,0.746093 0,0.07057 -0.1711,0.1817 -0.38281,0.242188 -0.46482,0.120975 -1.46169,1.099705 -1.5625,1.533203 -0.0616,0.211707 -0.14113,0.28125 -0.3125,0.28125 -0.12208,0 -0.37354,0.07137 -0.54493,0.162109 -0.17137,0.08065 -0.4836,0.180694 -0.69531,0.210938 -0.2117,0.03024 -0.64451,0.19253 -0.95703,0.34375 -0.3226,0.161301 -0.65537,0.291015 -0.74609,0.291015 -0.29237,0 -2.93537,1.542294 -3.75196,2.1875 -0.26211,0.201627 -0.72458,0.615529 -1.03711,0.917969 l -0.57422,0.544922 -1.94726,0.0293 c -1.0787,0.02016 -2.62091,0.06124 -3.4375,0.101562 -0.82666,0.04032 -1.49219,0.03064 -1.49219,-0.0098 0,-0.04032 0.0718,-0.444778 0.15234,-0.898438 0.19263,-0.998052 0.16065,-5.664372 -0.041,-6.652343 -0.0706,-0.332792 -0.13023,-1.079345 -0.15039,-1.664063 -0.0201,-0.766182 -0.0721,-1.159445 -0.20313,-1.431641 -0.11087,-0.221789 -0.16078,-0.513848 -0.14062,-0.6953121 0.0504,-0.3226027 0.0104,-0.5538526 -0.26172,-1.703125 -0.20162,-0.8770763 -0.73588,-2.3292969 -0.9375,-2.5410157 -0.0908,-0.1008137 -0.17157,-0.352745 -0.18164,-0.5644531 -0.0504,-0.6048802 -0.32283,-1.5429474 -0.55469,-1.8554687 -0.11087,-0.1512201 -0.20117,-0.3223245 -0.20117,-0.3828125 0,-0.1310574 -0.92858,-1.3009952 -1.46289,-1.85546878 -0.71578,-0.72585601 -0.85656,-0.76594071 -2.31836,-0.75585937 -0.71577,0.01008134 -1.40082,0.03030287 -1.51172,0.06054687 -0.34276,0.08065071 -3.61995,1.14981808 -3.78125,1.23046878 -0.0908,0.050406 -0.49323,0.1403681 -0.89648,0.2109375 -0.40325,0.070569 -0.90712,0.2227739 -1.12891,0.34375 -0.43349,0.2520333 -1.50163,1.3699967 -1.51172,1.5917969 -0.01,0.2217894 -0.93868,1.5319991 -1.15039,1.6328124 -0.63511,0.2923696 -2.16601,3.0958958 -2.16601,3.9628907 0,0.1915453 -0.0811,0.4542486 -0.17188,0.6054687 -0.15122,0.2217894 -0.18138,0.7058904 -0.25195,3.5488284 -0.0404,1.804558 -0.10056,3.759032 -0.13086,4.34375 -0.0303,0.584717 -0.102,2.006346 -0.15235,3.175781 -0.0504,1.159354 -0.14099,2.279158 -0.1914,2.470703 -0.22179,0.786344 -0.4232,2.025406 -0.44336,2.710938 -0.0201,0.635123 -0.0513,0.7253 -0.22266,0.765625 -0.11087,0.03025 -0.5137,0.122472 -0.88672,0.203125 -0.9678,0.221788 -1.90452,0.59368 -2.45898,0.966797 -0.89852,0.374091 -0.92258,0.371223 -1.43555,0.695312 -0.15639,-0.01645 -1.1388,1.636151 -1.97265,2.947266 -0.1891,0.210502 -0.39865,0.462397 -0.6543,0.814453 0,0.08065 -0.12225,0.272292 -0.27344,0.433593 -0.063,0.06813 -0.13111,0.157364 -0.20508,0.275391 -0.004,-3.01e-4 -0.0119,0.0076 -0.0156,0.0059 0.004,0.0025 0.008,0.0016 0.0117,0.0039 -0.22121,0.355606 -0.51267,0.975936 -1,2.123047 -0.14114,0.332683 -0.40316,1.099882 -0.56446,1.714843 l -0.3125,1.109375 -0.0312,3.234375 -0.0391,3.236329 0.27149,0.998046 c 0.15121,0.554474 0.31317,1.31027 0.35351,1.69336 0.0605,0.544392 0.16109,0.807052 0.44336,1.230468 0.19154,0.302548 0.4024,0.544922 0.46289,0.544922 0.0504,0 0.0904,0.05997 0.0703,0.140625 -0.0706,0.312523 0.90875,1.431004 2.13868,2.449219 0.96781,0.806508 1.49131,1.16051 2.26757,1.523438 0.55448,0.272196 1.2089,0.584417 1.46094,0.695312 l 0.34961,0.169922 c 0.0213,0.0092 0.0412,0.01764 0.0606,0.03125 l 0.0449,0.02148 -0.0117,0 c 0.003,0.002 0.007,0.004 0.01,0.0059 0.0175,0.01455 0.0387,0.03295 0.0566,0.05078 0.002,3.06e-4 0.004,-8.8e-5 0.006,0 0.0167,0.007 0.0322,0.01114 0.0488,0.01953 0.008,0.0043 0.0277,0.0094 0.0234,0.01758 -0.004,0.0082 -0.0307,-0.01644 -0.0273,-0.0078 0.009,0.0225 0.0175,0.04439 0.0332,0.06445 0.0102,0.0046 0.0201,0.01601 0.0293,0.02344 0.003,10e-4 0.007,-0.0016 0.01,0 0.0104,-9.79e-4 0.0208,-0.0034 0.0312,-0.0039 5.6e-4,-2.7e-5 -2.4e-4,0.01511 0,0.01953 0.009,0.0033 0.0189,0.0087 0.0274,0.01367 0.001,-6.14e-4 0.003,-0.0013 0.004,-0.002 0.008,0.0042 0.0174,0.007 0.0254,0.01172 0.003,0.0011 -0.009,-6.52e-4 -0.006,0 0.0852,0.02489 0.003,-0.0066 0.0644,0.01758 -0.003,3.41e-4 -0.0102,0.0013 -0.008,0.002 0.0131,0.0035 0.0278,0.0043 0.041,0.0078 0.009,0.0025 0.0183,0.0064 0.0274,0.0098 l -0.002,0.002 c 0.0141,0.0046 0.0289,0.0068 0.043,0.01172 0.009,0.0031 0.0169,0.0075 0.0254,0.01172 -0.0395,-0.0018 0.0185,0.0011 0.0215,0.0078 0.003,0.0067 -0.029,-0.0029 -0.0176,0.0098 0.0258,-0.0084 0.0504,-0.0169 0.0762,-0.02539 0.0205,0.0047 0.0436,0.0065 0.0625,0.01563 0.0184,0.0088 0.0316,0.02367 0.0469,0.03711 0.003,0.002 0.008,0.0059 0.006,0.0078 -0.002,0.002 -0.01,-0.006 -0.008,-0.0039 0.0496,0.04639 0.0247,0.0151 0.0508,0.05078 -2.2e-4,0.0016 -0.001,0.0028 0,0.0039 0.0119,0.0098 0.0249,0.01791 0.0371,0.02734 0.0293,0.0226 0.0535,0.05334 0.0879,0.07031 -0.0402,-0.03522 0.0883,0.103443 0.0391,0.05859 0.014,0.01518 0.0279,0.02898 0.041,0.04492 0.004,0.0052 0.003,0.01461 0.008,0.01953 0.0333,0.03699 0.0781,0.0609 0.11328,0.0957 0.0686,0.04893 0.13379,0.101223 0.20313,0.148437 0.0173,0.01328 0.036,0.02501 0.0527,0.03906 0.044,0.03697 0.0399,0.04152 0.0801,0.07031 0.0429,0.03068 0.0872,0.06225 0.13086,0.0918 0.0432,0.03411 0.0869,0.06131 0.12305,0.103516 0.0143,0.01677 0.0261,0.0352 0.0391,0.05273 0.004,0.0026 0.006,0.0029 0.01,0.0039 0.002,5.25e-4 0.004,-4.23e-4 0.006,0 0.0657,0.0182 0.0931,0.04892 0.14062,0.09375 0.0115,0.0039 0.0195,0.01445 0.0293,0.02148 0.004,0.0012 9.4e-4,4.44e-4 0.006,0.002 0.0191,0.0058 0.045,0.01783 0.0703,0.0293 0.008,-1.03e-4 0.0154,-0.0036 0.0234,-0.0039 0.005,-1.68e-4 0.009,-0.0017 0.0137,-0.002 0.006,-4.51e-4 0.0141,0.0183 0.008,0.01758 -0.009,-0.0011 -0.0243,-0.01615 -0.0215,-0.01563 0.0211,0.01355 0.0218,0.01775 0.0254,0.02539 l 0.002,0.002 c 0.006,1.79e-4 0.0133,-8.36e-4 0.0195,0 0.0313,0.0041 0.0627,0.01553 0.0937,0.02148 0.15875,0.03044 -0.1003,-0.02655 0.0918,0.01758 0.0294,0.0093 0.054,0.02889 0.0801,0.04492 0.0204,0.0022 0.0405,0.0032 0.0605,0.0078 0.003,7.53e-4 0.004,0.0026 0.01,0.0039 0.009,7.72e-4 0.0118,-0.0013 0.0176,-0.002 0,0.0026 -4e-5,0.0052 0,0.0078 0.001,10e-4 0.0105,0.0032 0.008,0.0039 -0.002,6.78e-4 -0.005,-6.24e-4 -0.008,0 2.2e-4,0.0098 -5.4e-4,0.01946 0,0.0293 0.0138,0.0086 0.0284,0.01617 0.043,0.02344 0.004,0.0017 0.008,-0.0013 0.0117,0 0.006,0.0021 0.0116,0.0048 0.0176,0.0078 0.0347,0.02387 0.032,0.03465 0.0352,0.03711 0.0668,-0.01521 0.0778,-0.0075 0.15234,0.03516 0.004,0.0021 0.005,0.0065 0.008,0.0098 l 0.002,0 0,0.002 c 0.0177,-0.01129 0.0309,-0.02456 0.0547,-0.0332 l 0.002,0 c 0.0437,-0.0151 0.0835,-0.01013 0.12695,0.0059 -9e-4,-0.0014 -0.005,-0.0015 -0.006,-0.0039 0.0192,0.0051 0.0374,0.01053 0.0566,0.01563 0.007,0.0028 0.014,0.0056 0.0215,0.0078 0.004,0.0013 0.0112,-0.0033 0.0156,-0.0039 0.006,-8.55e-4 0.0132,-0.0012 0.0195,-0.002 0.0686,0.02579 0.0816,0.03418 0.0938,0.04883 0.002,-8.7e-5 0.004,2e-6 0.006,0 0.28214,-0.03561 0.55412,-0.06448 0.88086,-0.128907 0.80652,-0.161301 1.76434,-0.323272 2.11719,-0.353515 0.45366,-0.04033 0.71598,-0.120579 0.86719,-0.261719 0.13106,-0.120975 0.35243,-0.201172 0.57422,-0.201172 0.31252,0 0.60495,0.08112 1.74414,0.484375 0.56455,0.201626 2.40863,0.463581 3.51758,0.503906 1.03837,0.03024 1.1292,0.05039 1.43164,0.3125 0.23187,0.211709 0.46461,0.30311 0.9082,0.353516 0.79642,0.09074 1.83499,0.412896 2.86328,0.886719 1.74408,0.816588 3.30607,1.400627 4.38477,1.642578 0.61496,0.141139 1.31046,0.312875 1.5625,0.363281 0.81658,0.201626 1.94593,0.393328 2.92382,0.494141 0.52531,0.06049 1.28098,0.171303 1.66407,0.251953 0.39317,0.07057 1.03784,0.191149 1.45117,0.261719 0.98797,0.171382 5.34295,0.180833 6.86523,0.01953 0.71578,-0.08065 2.61067,-0.13086 4.93946,-0.130859 2.32878,0 4.22368,0.05021 4.93945,0.130859 1.5122,0.161301 5.74614,0.15185 6.80469,-0.01953 0.44357,-0.07057 1.13057,-0.191149 1.51367,-0.261719 0.39316,-0.08065 0.9984,-0.170613 1.36133,-0.210938 0.72586,-0.07057 2.51892,-0.364089 3.22461,-0.52539 0.25203,-0.06049 0.90841,-0.20129 1.46289,-0.322266 1.15935,-0.262115 1.93462,-0.534504 2.42969,-0.867187 0.19154,-0.131058 0.45292,-0.242188 0.58398,-0.242188 0.13105,0 0.70661,-0.221944 1.28125,-0.49414 1.1896,-0.554582 2.20785,-0.875749 3.05469,-0.976563 0.44357,-0.05041 0.67437,-0.141807 0.90625,-0.353516 0.30243,-0.262113 0.39326,-0.282256 1.43164,-0.3125 1.39122,-0.05041 3.12582,-0.343413 3.97265,-0.666015 0.93757,-0.362929 1.56147,-0.403056 1.84375,-0.13086 0.18147,0.161302 0.44502,0.232165 1.14063,0.302735 0.36245,0.03699 1.00443,0.154957 1.58203,0.259765 0.009,-0.0033 0.0109,-0.01094 0.0215,-0.01367 0.006,-0.0015 0.0113,-0.0011 0.0176,-0.0039 0.003,-0.0076 -1.8e-4,-0.0086 0.004,-0.01758 0.008,-0.01829 0.016,-0.0414 0.0352,-0.04883 0.0148,-0.0059 -0.0295,0.05668 -0.0215,0.04297 0.0559,-0.0954 0.0211,-0.05685 0.0547,-0.0918 0.0508,-0.02159 0.10027,-0.04609 0.15234,-0.06445 0.0149,-0.0053 0.0234,0.0088 0.0371,0.0078 0.0104,-8.07e-4 0.0211,-0.0035 0.0312,-0.0059 0.0172,-0.0041 0.0338,-0.0088 0.0508,-0.01367 0.034,-0.0067 0.0671,-0.01766 0.10156,-0.02148 0.0343,-0.0037 0.0666,0.01259 0.0996,0.0059 0.0388,-0.011 0.0779,-0.02417 0.11719,-0.0332 0.005,-0.0011 0.0158,-6.94e-4 0.0137,0.0039 l 0.10547,-0.03906 c 0.0181,0.0017 0.0371,0.0016 0.0547,0.0059 0.0234,-0.01775 0.0419,-0.06009 0.0762,-0.02734 0.0377,-0.002 0.0756,-0.0078 0.11328,-0.0059 0.019,9.82e-4 0.0363,0.01073 0.0547,0.01563 0.005,0.0032 0.0116,0.009 0.0176,0.0098 0.0522,0.0061 0.10623,-0.0046 0.1582,0.0078 l 0.002,0.002 c -0.003,0.0027 -0.0131,0.0023 -0.01,0.0039 0.004,0.0021 0.01,-3.53e-4 0.0137,-0.002 0.0178,-0.0063 0.0345,-0.01677 0.0527,-0.02148 0.0952,-0.02454 0.0811,-0.02184 0.15429,-0.01563 0.005,9.22e-4 0.009,0.0024 0.0137,0.0039 0.003,9.76e-4 0.005,0.009 0.008,0.0078 0.0204,-0.0076 0.0377,-0.02119 0.0586,-0.02734 0.0868,-0.02563 0.0926,-0.02126 0.16797,-0.01758 0.0998,-0.04045 0.18466,-0.122089 0.30078,-0.117188 0.0184,8.76e-4 0.0311,-0.007 0.0449,-0.0098 0.018,-0.02629 0.0334,-0.05435 0.0547,-0.08008 0.0788,-0.08807 0.1131,-0.108758 0.21094,-0.121094 0.004,-0.005 0.007,-0.01136 0.0117,-0.01563 0.004,-0.0032 -0.002,0.0071 -0.006,0.01367 0.002,-1.8e-4 0.002,1.75e-4 0.004,0 0.008,-0.04272 0.0199,-0.0628 0.0899,-0.117188 l 0.002,0 c 0.0572,-0.03406 0.0476,-0.03318 0.13672,-0.05078 0.009,-0.0018 0.0318,-0.0059 0.0273,0.002 -0.007,0.01309 -0.20065,0.115553 0.0547,-0.02539 -0.0122,0.01201 -0.0123,0.0097 0.0215,-0.0059 0.0234,-0.01073 0.0447,-0.02311 0.0684,-0.0332 0.043,-0.01834 0.0907,-0.02475 0.13672,-0.0332 0.005,-9.92e-4 0.0102,0.0012 0.0156,0.002 0.0676,0.0075 0.12959,-0.03679 0.19726,-0.0332 0.0523,-0.01414 0.0673,-0.01872 0.13477,-0.0293 0.0182,-0.0029 0.007,0.01325 0.01,0.01172 0.008,-0.0031 0.0126,-0.0092 0.0195,-0.01367 0.004,-0.0051 0.007,-0.01102 0.0117,-0.01563 0.007,-0.0065 -0.0173,0.03282 -0.0117,0.02539 0.0314,-0.04155 0.0794,-0.154657 0.16015,-0.126953 0.0613,-0.01732 0.11772,-0.04643 0.17969,-0.0625 0.005,-0.0013 0.0108,0.0035 0.0156,0.002 0.018,-0.0057 0.0334,-0.01598 0.0508,-0.02344 0.0539,-0.0099 -9.5e-4,0.0033 0.0937,-0.04687 0.0203,-0.0108 0.0414,-0.01831 0.0625,-0.02734 0.006,-0.0028 0.0125,-0.0038 0.0195,-0.0078 -0.0195,-0.01258 -0.0101,-0.09902 0.12695,-0.03516 0.071,-0.101576 -0.10777,0.12052 0.0996,-0.113281 0.0113,-0.0097 0.0217,-0.02119 0.0352,-0.02734 0.0278,-0.01271 0.06,-0.01277 0.0898,-0.01953 -0.0325,-0.0059 -0.0207,-0.0046 0.0312,-0.01953 0.006,-6.58e-4 -0.0242,0.01828 -0.0312,0.0098 -0.004,-0.0044 0.007,-0.0061 0.0137,-0.0098 l -0.084,-0.002 1.08789,-0.484375 c 1.33073,-0.584718 1.87567,-0.916445 3.22656,-2.025391 1.05855,-0.866995 1.61316,-1.512441 2.49023,-2.923828 0.35284,-0.554472 0.44342,-0.806854 0.50391,-1.361328 0.0404,-0.362929 0.19059,-1.109589 0.3418,-1.664063 l 0.27344,-0.998046 -0.041,-3.236329 c -0.0303,-3.135296 -0.0396,-3.266252 -0.30274,-4.24414 -0.15122,-0.554474 -0.37316,-1.26006 -0.49414,-1.5625 -0.2722,-0.685531 -1.41076,-3.053522 -1.70312,-3.527344 -0.46374,-0.7561 -0.94712,-1.471569 -1.13867,-1.693359 l -0.01,-0.0098 c -0.0671,-0.04652 -0.14395,-0.09892 -0.17773,-0.154297 -0.0155,-0.02546 -0.0238,-0.05449 -0.0352,-0.08203 -0.0102,-0.07609 -0.0116,-0.139783 0.004,-0.199219 l -0.002,-0.002 c -0.0602,0.0027 -0.0934,-0.02573 -0.0937,-0.08594 -0.006,10e-4 -0.008,-0.0011 -0.0137,0 -0.0243,0.0045 0.021,0.05049 0.01,0.07227 -0.002,0.0048 -0.005,-0.0094 -0.008,-0.01367 -0.006,-0.01043 -0.0206,-0.04185 -0.0156,-0.03125 -0.0217,-0.02376 -0.0155,-0.0099 -0.0586,-0.111328 -0.007,-0.01728 0.0248,0.03734 0.0176,0.05469 -0.006,0.01423 -0.0181,-0.02657 -0.0234,-0.04102 -0.0121,-0.03255 -0.008,-0.04915 -0.01,-0.06641 -0.0267,-0.02182 -0.053,-0.04212 -0.0723,-0.0625 -0.0253,-0.0057 -0.0509,-0.01156 -0.0762,-0.01758 -0.0243,-0.01904 -0.0498,-0.03553 -0.0723,-0.05664 -0.0121,-0.01133 -0.0215,-0.02558 -0.0312,-0.03906 -0.003,-0.0047 -0.0132,-0.01335 -0.008,-0.01562 0.007,-0.0031 0.0281,0.0143 0.0215,0.0098 -0.11146,-0.07704 -0.039,0.0071 -0.13281,-0.148437 -0.002,-0.01228 1.2e-4,-0.0231 -0.002,-0.03516 -0.0103,-0.0071 -0.0209,-0.01438 -0.0312,-0.02148 -0.0188,-0.0399 -0.0321,-0.08036 -0.0527,-0.119141 l -0.002,0 c -0.003,-0.0035 0.002,0.01703 0.006,0.02539 0.003,0.0095 0.021,0.03428 0.0137,0.02734 -0.0171,-0.01624 -0.034,-0.03567 -0.0449,-0.05664 -0.002,-0.004 -2.3e-4,7.04e-4 -0.004,-0.0098 -0.0463,-0.02126 -0.10274,-0.05005 -0.10742,-0.05273 -0.0169,-0.02283 -0.0339,-0.04553 -0.0508,-0.06836 0.005,0.0067 0.002,0.01352 0.01,0.02148 0.009,0.0097 -0.0125,-0.02369 -0.0195,-0.03516 0.003,0.0045 0.006,0.0092 0.01,0.01367 -0.0126,-0.01558 -0.016,-0.03675 -0.0215,-0.05078 -8.3e-4,-0.0011 -0.001,-0.0048 -0.002,-0.0059 -0.0311,-0.0068 -0.0671,-4.58e-4 -0.10156,-0.01563 -0.0597,-0.05249 -0.11968,-0.06359 -0.17774,-0.121094 -0.0155,-0.01532 -0.0247,-0.03677 -0.0371,-0.05469 0.005,0.0078 -0.008,-0.0097 -0.006,-0.0059 -0.069,0.01653 -0.14345,-0.01549 -0.1914,-0.06445 -0.009,-0.0088 0.0416,0.02668 0.0293,0.02539 -0.0225,-0.0023 -0.0386,-0.02564 -0.0605,-0.0293 l -0.002,-0.002 c -0.0149,0.005 -0.0281,0.01229 -0.043,0.01563 -0.0168,0.0038 -0.0342,-0.0097 -0.0508,-0.01563 -0.005,-0.0018 -0.0148,-0.0019 -0.0117,-0.0059 0.005,-0.0062 0.0292,-0.0057 0.0215,-0.0059 -0.041,-0.0011 -0.0818,0.01094 -0.12305,0.002 -0.11554,-0.01448 -0.23723,-0.02875 -0.33789,-0.0918 -0.0251,-0.01576 -0.0515,-0.03185 -0.0703,-0.05469 -0.0298,-0.03603 -0.0481,-0.07912 -0.0723,-0.119141 -0.003,-0.02537 -0.006,-0.06169 -0.0117,-0.09766 l -0.0176,0 -0.46289,-0.322265 c -0.55446,-0.373117 -1.49314,-0.745009 -2.46094,-0.966797 -0.37301,-0.08065 -0.77582,-0.172882 -0.88672,-0.203125 -0.17137,-0.04032 -0.20249,-0.129811 -0.22265,-0.72461 -0.0212,-0.725856 -0.28174,-2.328537 -0.45313,-2.751953 -0.0605,-0.141139 -0.15076,-1.572849 -0.20117,-3.175781 -0.0504,-1.613014 -0.13092,-3.12492 -0.19141,-3.376953 -0.0504,-0.252033 -0.11068,-1.835632 -0.13086,-3.529297 -0.0302,-2.469928 -0.0718,-3.2062394 -0.21289,-3.7304689 -0.0907,-0.3629281 -0.2113,-0.6953712 -0.26172,-0.7558593 -0.0504,-0.050417 -0.0898,-0.1709867 -0.0898,-0.2617188 0,-0.3629281 -0.72666,-1.7335242 -1.16016,-2.1972656 -0.25203,-0.2721961 -0.48374,-0.5955052 -0.5039,-0.7265625 -0.0302,-0.1209763 -0.17073,-0.3637735 -0.33203,-0.5351563 -0.15123,-0.1713827 -0.49538,-0.6436215 -0.76758,-1.046875 -0.27219,-0.4032534 -0.56357,-0.7868525 -0.6543,-0.8574218 -0.10087,-0.07058 -0.28269,-0.2716609 -0.42383,-0.453125 -0.39317,-0.5444029 -1.42112,-1.0896458 -2.31836,-1.2207032 -0.41333,-0.070569 -0.98756,-0.1908229 -1.25976,-0.2714844 -0.27219,-0.0907265 -1.29197,-0.35343529 -2.25977,-0.6054687 -1.3257,-0.33268411 -2.15841,-0.48595356 -2.79101,-0.43554687 z M 172.50781,1.7265625 c 0.37301,-0.010088 0.53507,0.05001 0.78711,0.2617187 0.49398,0.4133457 1.3511,1.5411708 1.55274,2.0351563 0.0908,0.2419521 0.24161,0.5453553 0.32226,0.65625 0.0806,0.110895 0.14063,0.3931293 0.14063,0.625 0,0.2318707 0.11079,0.6659942 0.25195,0.9785156 0.27219,0.5847176 0.41347,1.0275523 0.80664,2.5800781 0.13106,0.5141591 0.27218,1.0186431 0.3125,1.109375 0.0404,0.090733 0.0817,0.3817848 0.0918,0.6640628 0.0302,0.473823 0.12002,1.050144 0.34179,2.068359 0.0504,0.252034 0.10157,1.722549 0.10157,3.285156 0.01,2.177569 -0.0196,2.994039 -0.14063,3.558594 -0.0806,0.403254 -0.15234,0.92797 -0.15234,1.169922 0,0.645205 -0.0695,0.755859 -0.47266,0.755859 -0.41334,0 -2.57073,0.362768 -2.99414,0.503907 -0.1613,0.06049 -0.40411,0.101562 -0.53515,0.101562 -0.22287,0 -2.82228,0.676016 -3.50782,0.917969 -0.1613,0.06049 -0.83722,0.282325 -1.48242,0.494141 -0.65529,0.211708 -1.40195,0.503392 -1.66406,0.644531 -0.26211,0.141138 -0.97684,0.473897 -1.5918,0.746093 -0.60487,0.272305 -1.40073,0.686099 -1.76367,0.917969 -0.94764,0.60488 -1.41253,0.816298 -1.83594,0.816407 l -0.38281,0 0.0605,-0.484376 c 0.0404,-0.262113 0.17135,-1.018226 0.3125,-1.683593 0.20162,-1.008134 0.26114,-1.694334 0.34179,-4.033203 0.0504,-1.552526 0.14296,-3.013907 0.19336,-3.25586 0.0605,-0.23187 0.0992,-1.552767 0.10938,-2.923828 0.01,-3.578875 0.14189,-4.5771508 0.78711,-5.9179686 0.39316,-0.8065069 0.88699,-1.5719552 1.50195,-2.2675782 0.17139,-0.2117081 0.32227,-0.463324 0.32227,-0.5742187 0,-0.2520334 0.46322,-0.8981377 1.13867,-1.59375 0.51413,-0.5242295 0.53477,-0.5340111 1.48242,-0.6953125 1.05854,-0.1915454 1.4427,-0.2918022 2.77344,-0.765625 1.25007,-0.4435788 2.22646,-0.6852313 2.79101,-0.6953125 z m 51.875,0 c 0.26716,-0.012602 0.59907,0.034771 1.05274,0.140625 0.71577,0.1713827 1.50136,0.4137842 2.58007,0.796875 0.39425,0.1411387 1.17991,0.3519959 1.73438,0.4628906 1.24,0.2318708 1.49212,0.3529698 1.74414,0.8066407 0.10075,0.1915453 0.31362,0.4829142 0.46484,0.6542968 0.15122,0.1613015 0.38261,0.4852418 0.51368,0.7070313 0.13105,0.2217893 0.37221,0.564314 0.52343,0.7558593 0.77627,0.9375751 1.02828,1.3009952 1.31055,1.8554688 0.17139,0.3427655 0.36302,0.6849743 0.43359,0.765625 0.13105,0.1613014 0.31395,1.0880725 0.45508,2.267578 0.0504,0.383091 0.0898,1.85487 0.0898,3.246094 0.01,1.401306 0.0508,2.742739 0.11132,2.974609 0.0504,0.241953 0.14101,1.723871 0.19141,3.306641 0.0504,1.58277 0.14099,3.004399 0.19141,3.175781 0.10075,0.312521 0.37379,1.774833 0.47461,2.541016 l 0.0488,0.433594 -0.37304,0 c -0.4335,0 -0.84645,-0.191739 -1.94531,-0.867188 -0.41442,-0.262115 -1.2092,-0.665935 -1.76368,-0.917969 -0.55447,-0.241951 -1.22062,-0.554489 -1.47265,-0.685547 -0.79643,-0.423416 -6.06825,-2.066406 -6.63282,-2.066406 -0.11087,0 -0.45311,-0.06973 -0.76562,-0.15039 -0.31253,-0.08076 -1.11949,-0.223721 -1.79492,-0.314454 -0.67545,-0.09074 -1.29,-0.180901 -1.35157,-0.201172 -0.0806,-0.02016 -0.13085,-0.220681 -0.13085,-0.533203 0,-0.272196 -0.06,-0.836665 -0.14063,-1.25 -0.19155,-0.998052 -0.25147,-5.868802 -0.0801,-6.191406 0.0605,-0.120975 0.16022,-0.685129 0.22071,-1.259765 0.13106,-1.340926 0.66455,-4.2242139 0.83593,-4.4863286 0.0404,-0.07057 0.15147,-0.3619382 0.24219,-0.6542969 0.0806,-0.2923588 0.24294,-0.7065764 0.34375,-0.9082031 0.10088,-0.2117081 0.19141,-0.4633242 0.19141,-0.5742188 0,-0.110895 0.06,-0.3536922 0.14062,-0.5351562 0.0806,-0.1814641 0.20286,-0.5542915 0.27344,-0.8164063 0.13105,-0.5343108 1.08873,-1.854559 1.62305,-2.2578125 0.19154,-0.136098 0.393,-0.2081014 0.66015,-0.2207031 z m -25.7832,13.3574215 c 0.0806,0.01013 0.29182,0.05929 0.45312,0.09961 0.17139,0.04033 0.57552,0.213383 0.90821,0.384765 l 0.60351,0.3125 -0.70507,0.08008 c -0.39425,0.04032 -0.99841,0.07031 -1.36133,0.07031 -0.36293,0 -0.96653,-0.03 -1.34961,-0.07031 l -0.70703,-0.08008 0.54492,-0.292968 c 0.57464,-0.312522 1.37133,-0.564395 1.61328,-0.503907 z m -1.18164,2.714844 c 1.49472,-0.0189 3.66937,0.04258 4.35742,0.148438 0.44358,0.06049 0.94611,0.160215 1.10742,0.220703 0.17138,0.0504 0.55497,0.161852 0.85742,0.232422 0.94764,0.221788 2.79274,1.10931 4.23438,2.046875 0.94764,0.614961 2.49096,2.126022 2.9043,2.841796 0.14113,0.252141 0.40283,0.635632 0.57421,0.857422 0.4245,0.53431 0.80566,1.180464 2.14649,3.650391 0.4839,0.897239 1.18931,2.760964 1.38086,3.658203 0.0404,0.191546 0.10084,0.393269 0.12109,0.433594 0.0302,0.05041 0.0508,1.229869 0.0508,2.621094 0,2.671553 -0.0808,3.337709 -0.49414,4.154296 -0.11087,0.221898 -0.24092,0.513159 -0.28125,0.654297 -0.0404,0.141139 -0.30234,0.716695 -0.56445,1.28125 -0.2722,0.564555 -0.49414,1.068734 -0.49414,1.119141 0,0.06049 -0.17142,0.393246 -0.37305,0.746094 -0.20163,0.342765 -0.54384,0.977291 -0.76562,1.390625 -0.50406,0.967808 -1.95626,3.227055 -2.16797,3.398437 -0.24195,0.191545 -2.12768,1.338965 -2.54102,1.550782 -0.19153,0.100812 -0.68495,0.283005 -1.07812,0.414062 -0.40325,0.120975 -0.73633,0.262409 -0.73633,0.302734 0,0.08065 -0.28227,0.160569 -1.99609,0.583985 -0.93758,0.231871 -1.48149,0.302734 -2.19727,0.302734 -0.6452,0 -1.07999,0.05121 -1.33203,0.162109 -0.51415,0.211817 -2.02559,0.291845 -2.89258,0.140626 -0.3831,-0.0606 -1.23011,-0.171302 -1.86523,-0.251954 -0.64522,-0.07056 -1.43099,-0.232539 -1.76367,-0.353515 -0.33377,-0.120975 -0.87826,-0.292396 -1.21094,-0.373047 -0.33268,-0.08065 -0.99657,-0.28195 -1.48047,-0.44336 -0.48391,-0.161301 -0.93919,-0.291015 -1.00977,-0.291015 -0.13106,0 -0.64364,-0.302846 -2.41797,-1.421875 -0.57463,-0.362928 -0.75602,-0.545686 -1.25,-1.332031 -0.32261,-0.504067 -0.70619,-1.047684 -0.85742,-1.208985 -0.15121,-0.161301 -0.39231,-0.5449 -0.55469,-0.857422 -0.16131,-0.322603 -0.43377,-0.826466 -0.61523,-1.128906 -0.18147,-0.30244 -0.33203,-0.684402 -0.33203,-0.845703 0,-0.161301 -0.11111,-0.485241 -0.24219,-0.707031 -0.13106,-0.23187 -0.43446,-0.846865 -0.65625,-1.371094 -0.23187,-0.52423 -0.533,-1.209279 -0.66406,-1.511719 -0.47383,-1.078702 -0.52564,-1.551911 -0.45508,-4.384765 l 0.0606,-2.621094 0.48437,-1.453125 c 0.2722,-0.796425 0.63356,-1.733407 0.82618,-2.076172 0.19154,-0.342765 0.31344,-0.645222 0.2832,-0.685547 -0.0806,-0.08065 0.44348,-0.978407 0.56445,-0.978516 0.0504,0 0.1713,-0.150567 0.25195,-0.332031 0.24195,-0.493985 0.86633,-1.502857 1.33008,-2.097656 0.22179,-0.302441 0.47372,-0.684402 0.56446,-0.845703 0.2722,-0.544393 1.90581,-2.107005 2.79296,-2.681641 1.64327,-1.068621 3.17584,-1.815005 4.23438,-2.046875 0.30245,-0.07058 0.64497,-0.171933 0.75586,-0.232422 0.20164,-0.100812 0.85776,-0.200973 2.21875,-0.332031 0.26715,-0.0252 0.68926,-0.04058 1.1875,-0.04687 z m -14.12305,4.894531 c 0.45996,-0.005 0.88867,0.01682 0.88867,0.07227 0,0.04032 -0.13059,0.232283 -0.29297,0.423828 -0.15121,0.191545 -0.38262,0.554607 -0.51367,0.806641 -0.121,0.252032 -0.28295,0.522864 -0.35351,0.603515 -0.0806,0.08065 -0.28174,0.423176 -0.45313,0.75586 -0.17138,0.332683 -0.45425,0.827097 -0.60547,1.109375 -0.16131,0.272196 -0.39269,0.78614 -0.51367,1.128906 -0.11087,0.352846 -0.2631,0.666706 -0.34375,0.707031 -0.0705,0.05041 -0.20029,0.341145 -0.29101,0.673828 l -0.17188,0.595703 -0.27148,-0.261718 c -0.57463,-0.544391 -1.25148,-0.585146 -1.76563,-0.111328 -0.32261,0.30244 -0.41335,0.504275 -0.68554,1.552734 -0.2632,1.008134 -0.39296,1.965646 -0.44336,3.125 -0.01,0.52423 -0.10074,1.229816 -0.19141,1.5625 -0.27219,1.018215 -0.16078,1.522625 0.54492,2.359375 0.55448,0.655287 1.00866,0.816487 1.54297,0.564453 0.19155,-0.09074 0.37209,-0.252386 0.40234,-0.363281 0.0302,-0.100813 0.12024,-0.191406 0.21094,-0.191406 0.11088,0 0.17226,0.141293 0.22266,0.49414 0.0605,0.473823 0.13032,0.624641 0.58398,1.259766 0.10088,0.15122 0.22304,0.474844 0.27344,0.716797 0.15122,0.806506 2.30895,4.980259 3.66992,7.107422 0.66536,1.028296 1.05776,1.401038 2.20703,2.066406 0.4839,0.272196 1.02885,0.624171 1.23047,0.77539 0.2117,0.16141 0.9964,0.464507 1.98438,0.78711 0.89723,0.282277 2.0881,0.654474 2.64257,0.835937 0.85692,0.272197 1.22025,0.332405 2.41993,0.382813 0.77626,0.04033 1.73408,0.120836 2.11718,0.191406 0.7561,0.131058 2.3577,0.08185 2.97266,-0.09961 0.19155,-0.0504 0.86683,-0.101563 1.50195,-0.101563 1.03838,0 1.2415,-0.02896 2.19922,-0.351562 0.58473,-0.191545 1.11889,-0.353516 1.18945,-0.353516 0.33377,0 3.31665,-1.058031 3.5586,-1.259766 0.15122,-0.120974 0.45399,-0.322383 0.67578,-0.443359 0.66537,-0.352847 1.69297,-1.018129 1.95508,-1.25 0.13106,-0.120975 0.43351,-0.544644 0.68554,-0.927734 0.25312,-0.393173 0.56458,-0.867048 0.68555,-1.058594 0.121,-0.191545 0.40321,-0.675503 0.625,-1.058594 0.21171,-0.393172 0.49426,-0.887585 0.61524,-1.109375 0.36292,-0.625042 1.1289,-2.247533 1.1289,-2.388672 0,-0.06049 0.0805,-0.213325 0.19141,-0.324218 0.10075,-0.120975 0.283,-0.483723 0.41406,-0.816407 0.13106,-0.332683 0.40189,-0.94604 0.60352,-1.359375 0.21171,-0.413333 0.41311,-0.968038 0.44336,-1.240234 0.0806,-0.504067 0.19221,-0.595724 0.35351,-0.283203 0.0605,0.100812 0.27299,0.262469 0.47461,0.363281 0.5444,0.252034 1.01678,0.09021 1.54102,-0.544922 0.72585,-0.866995 0.83696,-1.330447 0.55468,-2.378906 -0.0907,-0.332684 -0.18131,-1.03827 -0.1914,-1.5625 -0.0605,-1.633176 -0.43269,-3.537874 -0.83594,-4.324219 -0.39317,-0.7561 -1.30111,-0.897217 -1.97656,-0.3125 l -0.3418,0.302735 -0.0918,-0.283204 c -0.0605,-0.151219 -0.17099,-0.503194 -0.26171,-0.77539 -0.17139,-0.52423 -0.85655,-1.855127 -1.63282,-3.175781 -0.25203,-0.413335 -0.57566,-0.989523 -0.71679,-1.261719 -0.15123,-0.282278 -0.40348,-0.654474 -0.55469,-0.835938 -0.1613,-0.181463 -0.29102,-0.373105 -0.29102,-0.433593 0,-0.07056 0.32254,-0.09112 0.9375,-0.05078 0.50407,0.03024 1.6519,0.09207 2.53907,0.142579 0.88715,0.0504 2.11776,0.170986 2.72265,0.261718 0.61496,0.09074 1.6041,0.231533 2.20899,0.322266 0.5948,0.09074 1.22869,0.20123 1.41015,0.261719 0.17138,0.0504 0.58528,0.131234 0.91797,0.18164 0.70569,0.100813 2.41832,0.553837 3.7793,1.017578 0.52422,0.171383 1.20145,0.384402 1.5039,0.455079 0.29235,0.08065 0.79491,0.302594 1.10743,0.49414 0.31252,0.191545 0.61497,0.351563 0.68554,0.351563 0.0605,0 0.41411,0.141117 0.78711,0.3125 l 0.51172,0.248047 0.0352,-0.002 c 0.006,0.0092 0.0129,0.01827 0.0195,0.02734 l 0.0996,0.04883 -0.0527,0.02344 c 0.0663,0.127313 0.067,0.106725 0.0684,0.197265 0.002,0.0076 0.002,0.01586 0.004,0.02344 0.024,0.004 0.048,0.007 0.0723,0.01172 0.0957,0.01876 0.17279,0.06823 0.24023,0.138672 -0.0264,-0.01882 -0.0747,-0.02467 -0.0801,-0.05664 -0.005,-0.02674 0.0526,0.01779 0.0762,0.03125 0.0312,0.01786 0.0628,0.03673 0.0879,0.0625 l 0.0586,0.08203 c 0.0786,0.01927 0.0963,0.01815 0.15429,0.05469 0.0103,0.0065 -0.0447,-0.02367 -0.0332,-0.01953 0.0325,0.0117 0.0641,0.02716 0.0957,0.04102 0.008,0.0027 0.0161,0.0067 0.0254,0.0078 0.002,2.6e-4 0.003,-0.0023 0.004,-0.0039 0.0339,0.01191 0.0677,0.02316 0.10156,0.03516 0.0114,0.004 0.0235,0.0064 0.0332,0.01367 0.0605,0.04535 0.0449,0.03082 0.0625,0.05078 0.0449,0.009 0.1249,0.02264 0.15039,0.05078 0.0864,0.09536 0.13385,0.192598 0.082,0.08984 0.0572,0.08922 0.0646,0.08417 0.0781,0.201171 0.003,0.02881 -0.0266,-0.05519 -0.0234,-0.08398 0.002,-0.01727 0.0227,0.0269 0.0293,0.04297 0.0101,0.02444 0.008,0.03208 0.0117,0.04883 0.004,6.83e-4 0.008,0.0056 0.0117,0.0098 0.30518,0.259337 0.0797,0.07751 0.0781,0.05859 -8e-4,-0.0098 0.018,0.0046 0.0273,0.0078 0.0921,0.05273 0.10178,0.07426 0.13281,0.107422 0.0557,-0.0083 0.0959,0.05942 0.13086,0.142578 0.0293,0.0055 0.0785,-0.0026 0.0801,0.02539 6.6e-4,0.01155 -6.4e-4,0.0086 0,0.01953 0.005,0.001 0.009,0.001 0.0137,0.002 0.0616,0.03677 0.13129,-0.0081 0.19531,0.0059 0.0555,0.01219 0.10813,0.03491 0.16211,0.05273 0.004,0.0033 0.008,0.0065 0.0117,0.0098 0.0196,-0.0058 0.0575,0.01452 0.0957,0.03906 0.0186,0.0026 0.0365,0.0049 0.0547,0.0078 0.0324,0.0052 0.0827,-0.01156 0.0977,0.01758 0.006,0.01092 0.006,0.015 0.0117,0.02539 0.0181,0.0032 0.0305,0.01273 0.0391,0.03125 0.30125,0.01701 0.62249,0.06546 0.88672,0.150391 0.49397,0.15122 0.5655,0.15122 0.96875,0 0.24195,-0.100813 0.62361,-0.171875 0.85547,-0.171875 0.44358,0 1.84477,0.302653 2.56054,0.554687 1.26018,0.45366 3.01589,1.976022 3.94336,3.427734 0.98798,1.552635 1.75306,3.24579 2.2168,4.939454 0.30244,1.078703 0.31319,1.169611 0.35352,3.861328 0.0605,3.599037 -0.0308,4.192738 -0.91797,5.896484 -0.85693,1.663421 -2.34879,3.327708 -3.49805,3.902344 -0.35285,0.181464 -0.89678,0.493686 -1.19922,0.695312 -1.5122,1.018215 -2.76285,1.360263 -4.59765,1.269532 -0.65529,-0.04032 -1.42084,-0.130602 -1.70313,-0.201172 -0.27219,-0.08065 -0.61472,-0.161163 -0.75586,-0.191406 -0.0253,-0.0053 -0.0609,-0.02676 -0.0898,-0.03711 -0.11958,0.171697 -0.18805,0.204282 -0.35742,0.125 -0.003,-4.82e-4 -0.005,1.93e-4 -0.008,0 -0.0263,-0.002 -0.0534,-0.0029 -0.0781,-0.01172 -0.0717,0.03802 -0.14582,0.04598 -0.22266,0.02148 -0.009,0.0092 -0.0105,0.01788 -0.0215,0.02734 -0.0429,0.03697 -0.10799,0.03449 -0.16407,0.04492 -2.3e-4,0.0019 6.6e-4,0.004 0,0.0059 -0.006,0.03607 -0.20099,0.09033 -0.23046,0.07617 -0.088,0.04199 -0.13202,0.05875 -0.22461,0.04687 0.007,-0.0091 0.0399,-0.02237 0.0293,-0.01758 -0.0451,0.02023 -0.0738,0.0228 -0.084,0.02734 -0.0473,0.07347 -0.16424,0.14331 -0.18555,0.158203 -0.0326,0.007 -0.0701,0.06235 -0.0918,0.03711 -0.005,-0.0057 0.0127,-0.0087 0.0176,-0.01367 -0.12885,0.08023 -0.10149,0.08262 -0.20703,0.08594 -0.0574,-4.84e-4 -0.0596,-5.81e-4 -0.11718,-0.0059 -0.0171,-0.0015 -0.0342,-0.0035 -0.0508,-0.0059 -0.007,-0.0011 -0.0257,0.0023 -0.0215,-0.0039 0.0198,-0.02933 0.0933,0.0047 0.0879,-0.06055 -0.1067,0.114843 -0.20469,0.129225 -0.3418,0.113281 -0.006,-7.54e-4 -0.0129,-0.0034 -0.0195,-0.0039 -0.0178,0.01114 -0.035,0.02453 -0.0547,0.03125 -0.12092,0.04118 -0.17666,0.03341 -0.29687,0.01758 -0.0417,-0.0055 -0.0817,-0.01428 -0.12305,-0.02148 l -0.0898,0.03906 c -0.19154,0.08065 -0.60481,0.170612 -0.9375,0.210937 -0.33269,0.04033 -0.88543,0.142005 -1.23828,0.222656 -0.35285,0.08076 -1.13926,0.140519 -1.74414,0.140626 -0.61497,0 -1.19965,0.05084 -1.31055,0.111328 -0.11087,0.06049 -0.41367,0.141315 -0.67578,0.18164 -0.26211,0.0504 -0.81713,0.151455 -1.23047,0.242188 -2.09691,0.423415 -2.07692,0.421875 -10.53516,0.421875 -7.58117,0 -8.22575,-0.0098 -9.0625,-0.191407 -0.72586,-0.151219 -1.00886,-0.160727 -1.41211,-0.08008 -0.58472,0.120975 -7.69156,0.101443 -8.18554,-0.01953 -0.20163,-0.05041 -0.64638,-0.01133 -1.21094,0.09961 -0.82666,0.181572 -1.50149,0.191407 -9.0625,0.191407 -8.45824,0 -8.43824,0.0015 -10.53516,-0.421875 -0.41333,-0.09074 -0.9664,-0.191782 -1.22851,-0.242188 -0.26211,-0.04033 -0.5649,-0.121152 -0.67578,-0.18164 -0.11088,-0.06049 -0.69559,-0.111329 -1.31055,-0.111328 -0.60487,0 -1.39129,-0.05986 -1.74414,-0.140626 -0.35285,-0.08065 -0.90755,-0.18233 -1.24023,-0.222656 -0.33377,-0.04033 -0.74597,-0.130287 -0.9375,-0.210937 l -0.25391,-0.107422 -0.004,0 -0.0273,-0.01172 c -0.006,6.42e-4 -0.0121,0.0012 -0.0176,0.002 -0.0148,0.0059 -0.0427,0.01621 -0.0664,0.02539 0.0208,0.0075 0.0462,0.0139 0.0586,0.02148 0.004,0.0026 -0.0111,0.0033 -0.0156,0.0039 -0.0196,0.0025 -0.039,0.0083 -0.0586,0.0059 -0.0146,-0.0018 -0.0286,-0.0069 -0.043,-0.0098 -0.0507,0.01634 -0.0986,0.02714 -0.11328,0.01172 -0.0591,-0.06218 -0.10069,-0.122555 -0.12695,-0.177734 -0.0743,9.9e-4 -0.14864,2.42e-4 -0.22266,0 -0.19507,-0.07405 -0.26256,-0.126537 -0.32422,-0.326172 -0.0121,-0.02126 -0.0199,-0.04395 -0.0254,-0.06641 -0.0395,0.004 -0.0806,0.01178 -0.11523,0.0059 -0.0534,-0.0091 -0.10439,-0.02776 -0.1543,-0.04883 -0.0275,-0.01159 -0.0511,-0.03073 -0.0762,-0.04687 0.006,0.0062 0.0238,0.01818 0.0156,0.01758 -0.0283,-0.0021 -0.0525,-0.01662 -0.0801,-0.02344 -0.0979,-0.02421 -0.19978,-0.04767 -0.26562,-0.134765 -0.004,-0.0051 -0.004,-0.01223 -0.008,-0.01758 -6.2e-4,0.0059 -0.002,0.0117 -0.002,0.01758 -0.038,0.01653 -0.0738,0.03605 -0.11328,0.04883 -0.0197,0.0064 -0.0418,0.0075 -0.0625,0.0078 -0.0915,0.0012 -0.14966,-0.01282 -0.19726,-0.04297 l 0,-0.002 c -0.02,0.01086 -0.0396,0.02238 -0.0606,0.03125 -0.0282,0.01201 -0.13551,0.02183 -0.14844,0.02344 -0.0416,-0.0059 -0.0848,-0.0053 -0.125,-0.01758 -0.0187,-0.0057 -0.0347,-0.01892 -0.0527,-0.02734 -0.1981,0.114868 -0.3804,0.206549 -0.50977,0.232422 -0.1613,0.03024 -0.48523,0.101936 -0.70703,0.152344 -0.22179,0.06049 -0.98703,0.120461 -1.71289,0.140625 -1.91545,0.04033 -2.79349,-0.202173 -4.33594,-1.230469 -0.22178,-0.15122 -0.7351,-0.442589 -1.14843,-0.654297 -1.21984,-0.645206 -2.67213,-2.229532 -3.59961,-3.943359 -0.5343,-0.998053 -0.60533,-1.209728 -0.79688,-2.308594 -0.20162,-1.229922 -0.2117,-1.53203 -0.0606,-6.683594 0.01,-0.131057 0.0922,-0.401889 0.20313,-0.603515 0.10087,-0.201628 0.22139,-0.555554 0.26172,-0.777344 0.0806,-0.483904 1.27046,-3.176135 1.55273,-3.539063 0.121,-0.15122 1.6533,-2.139047 1.62305,-2.189453 -0.004,-0.0059 -0.0156,7.03e-4 -0.0215,-0.002 0.28595,-0.278034 0.50345,-0.543259 0.49414,-0.589844 -0.01,-0.0504 0.0711,-0.152403 0.17187,-0.21289 0.11088,-0.07057 0.5251,-0.322501 0.9082,-0.564453 0.89724,-0.554474 1.17918,-0.674439 2.31836,-0.966797 0.55448,-0.141139 0.99695,-0.217867 1.375,-0.230469 0.37805,-0.0126 0.69202,0.03754 0.98438,0.148437 l 0,0.002 c 0.41334,0.15122 0.47376,0.149627 0.9375,-0.01172 0.0794,-0.03005 0.15535,-0.04069 0.23242,-0.05859 0.0173,-0.02986 0.0163,-0.05403 0.0449,-0.08594 0.0847,-0.09445 0.18809,-0.19623 0.31641,-0.228516 0.0157,-0.004 0.0344,-0.01273 0.0527,-0.01953 0.0403,-0.08517 0.10481,-0.136954 0.23633,-0.1875 0.0248,0.01065 0.0652,-0.01204 0.0996,-0.02734 0.0422,-0.02133 0.0888,-0.04161 0.13867,-0.05859 0.007,-0.02267 0.074,-0.04088 0.16211,-0.05078 0.002,-6.36e-4 0.004,6.61e-4 0.006,0 0.0169,-0.0052 0.0373,-0.005 0.043,-0.01172 0.066,-0.01772 0.12495,-0.05264 0.18359,-0.08398 0.0908,-0.04855 0.0511,-0.01477 0.084,-0.04492 0.0147,-0.0065 0.0537,-0.01099 0.0918,-0.02539 -0.007,-0.0011 0.0233,-0.01566 0.0332,-0.02344 0.0768,-0.06043 -0.19186,0.104178 0.10742,-0.06641 0.15015,-0.01196 0.0719,-0.02703 0.17383,-0.05078 0.003,-7.51e-4 0.005,-6.76e-4 0.01,-0.002 0.0157,-0.0067 0.0311,-0.01482 0.0469,-0.02148 0.041,-0.02583 0.0888,-0.04039 0.13086,-0.06445 0.006,-0.0035 -0.0269,0.0067 -0.0215,0.002 0.0508,-0.04352 0.1084,-0.04871 0.17188,-0.06641 0.0524,0.0015 0.0462,0.0037 0.0566,0.0039 -0.003,-0.003 -0.0133,-0.0025 -0.0156,-0.0059 -2.5e-4,-5.12e-4 -0.01,3.39e-4 0.0195,0 0.0129,-0.02184 0.0247,-0.04879 0.043,-0.07422 0.0376,-0.03722 0.0757,-0.07412 0.11329,-0.111328 0.002,-5.01e-4 0.004,-0.001 0.006,-0.002 0.0129,-0.0052 0.0257,-0.0058 0.0391,-0.01562 0.005,-0.0092 0.009,-0.01826 0.0137,-0.02734 0.0722,-0.0755 0.19664,-0.139279 0.30078,-0.09961 0.003,0.0013 -0.001,0.0096 0.004,0.0098 0.0145,-0.005 0.0159,-0.0066 0.0195,-0.0078 0.006,-0.04529 0.0264,-0.0897 0.0879,-0.158204 0.0295,-0.0328 0.0779,-0.04182 0.11914,-0.05859 0.001,-8.86e-4 0.003,-0.0011 0.004,-0.002 0,0 0.002,0 0.002,0 0,0 0,-0.002 0,-0.002 0.007,-0.0078 0.008,-0.01238 0.0137,-0.01563 0.0112,-0.0063 0.0117,-0.0044 0.0215,-0.0098 0,0 0.002,-0.002 0.002,-0.002 0.13511,-0.07421 0.15453,-0.06791 0.28515,-0.07422 l 0.49219,-0.238281 c 0.373,-0.171383 0.7263,-0.3125 0.79688,-0.3125 0.13105,0 0.73619,-0.363143 0.92773,-0.554688 0.0706,-0.07056 0.37365,-0.181383 0.66602,-0.251953 0.29236,-0.07056 1.14852,-0.312628 1.89453,-0.554688 1.72391,-0.544392 3.25615,-0.957031 3.55859,-0.957031 0.13106,0 0.57495,-0.08051 0.98828,-0.191406 0.41334,-0.100812 1.19943,-0.24193 1.75391,-0.3125 0.55447,-0.06049 1.58368,-0.201605 2.2793,-0.3125 0.69561,-0.100812 1.78284,-0.191091 2.41796,-0.201172 0.63513,0 1.24068,-0.04138 1.35157,-0.0918 0.12602,-0.05545 0.61816,-0.08676 1.07812,-0.0918 z m -18.5332,4.175782 c -0.003,0.0015 -0.0242,0.0134 -0.0352,0.02148 -0.008,0.006 -0.0299,0.0271 -0.0215,0.02148 0.0199,-0.01323 0.0378,-0.02833 0.0566,-0.04297 z m 0.20312,0.02734 c -0.004,0.0011 -0.004,5.59e-4 -0.008,0.002 -0.005,0.0042 -0.004,0.0034 -0.01,0.0078 0.004,-0.0014 0.005,-0.0022 0.01,-0.0039 0.002,-0.0022 0.005,-0.0037 0.008,-0.0059 z m 67.03321,0.0332 c -0.0192,-0.0093 -0.0389,0.01092 -0.0547,0.05078 l 0,0.002 c 0.003,0.0032 0.006,0.0065 0.01,0.0098 0.007,0.006 -0.002,-0.0034 0.006,0.0039 0.008,0.0073 0.0143,0.01577 0.0215,0.02344 0.009,-0.01254 0.0142,-0.02815 0.0254,-0.03906 0.004,-0.004 0.003,0.03102 0.002,0.06055 0.0151,0.0037 0.0312,0.0045 0.0449,0.01172 0.005,0.0024 0.0307,0.02602 0.041,0.03516 -0.0141,-0.04959 -0.0384,-0.130484 -0.0957,-0.158203 z m -67.79493,0.308593 c -0.001,0.001 -0.003,8.99e-4 -0.004,0.002 -0.0157,0.01658 -0.0407,0.08234 -0.0293,0.0625 0.0121,-0.02104 0.0224,-0.04275 0.0332,-0.06445 z m 66.76563,0.126953 c 0.0254,0.01491 0.0187,0.02042 0.0352,0.03125 -0.001,-0.0045 -0.003,-0.0021 -0.004,-0.0059 -0.0169,-0.01307 -0.0427,-0.03208 -0.0312,-0.02539 z m 1.59766,0.0098 0.0137,0.01953 c 0.015,-0.0031 -0.0179,-0.0069 0.01,-0.002 0.0282,0.0039 -0.004,-0.0078 -0.0234,-0.01758 z m -66.10743,0.333984 c 0.005,-0.0085 -0.0209,0.0081 -0.0273,0.01563 -0.002,0.0022 -0.002,0.0054 -0.004,0.0078 0.0142,-0.01058 0.029,-0.01946 0.0312,-0.02344 z m 66.86914,0.19336 c 0.008,0.04466 0.004,0.0674 0.0254,0.04297 -0.008,-0.01438 -0.0174,-0.02869 -0.0254,-0.04297 z m -0.4375,0.07813 c 0.002,0.0099 -3.8e-4,0.02408 0,0.03516 0.004,-9.9e-4 0.01,-0.001 0.0137,-0.002 0.003,0.0078 -0.01,-0.0254 -0.0137,-0.0332 z m 13.48243,0.160156 c 0.0104,0.01092 0.0221,0.01952 0.0332,0.0293 0.001,-0.0019 8.8e-4,-0.0021 0.002,-0.0039 l 0,-0.002 c 0.007,-0.01137 0.008,-0.01454 0.0137,-0.02344 -0.018,1.9e-5 -0.0322,8e-6 -0.0488,0 z m 0.0508,0 c -0.003,0.0085 -0.005,0.01697 -0.008,0.02539 0.002,3.79e-4 0.003,0.0013 0.006,0.002 0.006,-0.009 0.012,-0.01823 0.0176,-0.02734 l -0.0156,0 z m -0.01,0.03125 c -4.4e-4,0.0014 -0.002,0.0025 -0.002,0.0039 0.002,0.0015 0.002,3.62e-4 0.004,0.002 l 0,-0.002 c -0.002,-0.0012 -6.1e-4,-0.0029 -0.002,-0.0039 z m -4.20312,0.02539 c -0.005,-0.01833 0.0221,0.03133 0.0371,0.04297 0.007,0.0051 0.0155,0.0069 0.0234,0.0098 -0.0255,-0.01459 -0.0538,-0.02798 -0.0605,-0.05273 z m -80.05274,0.08203 c -0.0546,0.01878 -0.0391,0.0699 -0.004,0.128906 0.0125,-0.0306 0.0171,-0.06064 0.043,-0.09375 0.005,-0.006 0.0141,-0.0058 0.0195,-0.01172 -0.003,-0.0048 -0.005,-0.01111 -0.008,-0.01563 -0.0165,-0.0037 -0.0318,-0.01433 -0.0508,-0.0078 z m 5.81836,0.07227 c -0.004,0.01461 -0.009,0.02867 -0.01,0.03906 0.0183,-0.0027 0.0365,-0.0065 0.0547,-0.0098 -0.0103,-0.0059 -0.0189,-0.01362 -0.0293,-0.01953 -0.008,-0.0045 -0.008,-0.0053 -0.0156,-0.0098 z m 75.28906,0.05078 c -0.001,7.53e-4 -0.003,0.0012 -0.004,0.002 10e-4,0.0013 0.003,0.0026 0.004,0.0039 -2.3e-4,-0.0015 6.5e-4,-0.0043 0,-0.0059 z m -0.29101,0.148437 c -0.006,-0.0086 0.0115,0.02041 0.0195,0.02734 0.0192,0.01655 0.0125,0.01 0.0156,0.0098 -0.0138,-0.01439 -0.0288,-0.02838 -0.0352,-0.03711 z m -63.30469,2.775391 c 0.0351,0.0046 0.0807,0.02362 0.13867,0.04883 l 0.24024,0.111328 0,1.986328 0,1.984375 -0.56445,0.384766 -0.57422,0.373047 0.0703,-0.283203 c 0.0302,-0.161302 0.10199,-0.857122 0.15234,-1.552735 0.0907,-1.250086 0.12035,-1.421987 0.33203,-2.541015 0.0756,-0.415856 0.0997,-0.525424 0.20508,-0.511719 z m 37.67188,0.02344 c 0.13279,0.03354 0.19177,0.309637 0.32031,1.164063 0.0605,0.38309 0.15271,1.250539 0.20312,1.916016 0.0504,0.665368 0.12017,1.340651 0.15039,1.501953 l 0.0703,0.292968 -0.29102,-0.203125 c -0.1613,-0.120975 -0.4344,-0.23179 -0.5957,-0.251953 -0.24196,-0.02016 -0.30306,-0.08015 -0.29297,-0.261719 0,-0.120974 0.0114,-1.07881 0.0215,-2.117187 0.0201,-1.865047 0.0201,-1.905046 0.25196,-2.005859 0.0655,-0.03024 0.11784,-0.04634 0.16211,-0.03516 z m -45.25196,6.519532 c -0.023,0.01676 -0.046,0.03458 -0.0723,0.04492 -0.002,0.0083 -0.004,0.01386 -0.006,0.02148 0.0255,0.0032 0.0533,-0.0054 0.0781,0.002 4.1e-4,-0.02414 -4e-4,-0.0442 0,-0.06836 z m -1.5039,2.384765 c -0.002,0.0042 -0.005,0.0078 -0.008,0.01172 0.0153,-0.0013 0.0174,-0.0066 0.0273,-0.0098 -0.006,2.4e-5 -0.0134,-0.002 -0.0195,-0.002 z m 0.39062,0.01172 c 0.005,0.0016 0.0105,0.0044 0.0156,0.0059 5.9e-4,-5.6e-4 0.001,-0.0034 0.002,-0.0039 -0.003,-2.75e-4 -0.005,-0.0017 -0.008,-0.002 -0.004,-3.91e-4 -0.006,3.75e-4 -0.01,0 z m 0.875,0.002 c 4e-5,0.0019 -5e-5,0.0039 0,0.0059 4.8e-4,0.01721 0.0563,0.0383 0.043,0.02734 -0.0352,-0.02909 -0.0268,-0.02211 -0.043,-0.0332 z m 0.19532,0.08008 c -0.0474,0.0092 -0.0936,0.0084 -0.14063,0.01172 0.0394,-4.25e-4 0.0817,-0.0049 0.11914,-0.002 0.007,2.18e-4 0.0141,-2.32e-4 0.0215,0 1e-4,-0.0028 -3.2e-4,-0.0071 0,-0.0098 z m -1.7168,1.550782 0.002,0.002 c 0.005,0.001 0.006,2.99e-4 0.0137,0.002 -0.005,-0.0013 -0.0104,-0.0025 -0.0156,-0.0039 z m -0.0117,0.04102 c -1.9e-4,0.0026 1.9e-4,0.0072 0,0.0098 0.002,3.68e-4 0.004,-2.99e-4 0.006,0 -9.9e-4,-0.0027 -0.004,-0.0061 -0.006,-0.0098 z m 0.46289,0.955078 c 6.9e-4,0.0013 0.001,0.0026 0.002,0.0039 0.001,-1.24e-4 0.003,1.04e-4 0.004,0 0.002,-2.01e-4 -0.007,-0.0058 -0.006,-0.0039 z m 60.23633,7.861328 c -9e-5,0.0059 1.8e-4,0.01167 0,0.01758 0.0591,-0.0018 0.11863,0.0016 0.17773,0.0039 -0.005,-8.17e-4 -0.009,-0.0013 -0.0137,-0.002 -0.0545,-0.0082 -0.10922,-0.01381 -0.16406,-0.01953 z m 2.06836,1.886719 c -0.005,0.0023 -0.0106,0.0046 -0.0156,0.0078 0.004,0.0019 0.008,0.0042 0.0117,0.0059 0.008,-0.0041 0.0171,-0.0076 0.0254,-0.01172 -0.002,-3.73e-4 -0.003,4.06e-4 -0.006,0 -0.005,-8.55e-4 -0.0105,-0.0011 -0.0156,-0.002 z m -0.45117,0.02734 c 0.002,0.02357 0.005,0.04765 0.004,0.07031 l 0.002,0 c 0.0136,-0.014 0.0404,-0.02181 0.041,-0.04102 2.3e-4,-0.0073 -3.6e-4,-0.02019 0,-0.0293 l -0.002,0 c -0.0149,-1.22e-4 -0.03,-6.6e-5 -0.0449,0 z m -0.86915,0.138672 c -0.001,0.0013 -0.003,0.0046 -0.004,0.0059 0.0125,0.009 0.0226,0.01605 0.0352,0.02539 -0.014,-0.0098 -0.0199,-0.02086 -0.0313,-0.03125 z m 0.0352,0.03516 c 0.0741,0.05635 0.14962,0.105767 0.21094,0.105469 -0.0651,-0.02638 -0.14655,-0.06056 -0.21094,-0.105469 z m -65.79687,0.234375 c -0.0393,0.01035 -0.0596,0.0073 -0.11524,0.0293 -0.037,0.01461 0.019,0.0345 0.0781,0.05469 0.0241,-0.01802 0.0375,-0.04588 0.0371,-0.08398 z m 73.92773,1 c -0.008,0.02076 -0.0167,0.02378 -0.0234,0.02344 0.005,-0.0025 0.0121,-0.0083 0.0156,-0.0059 0.002,-0.0042 -7.4e-4,-6.93e-4 0.002,-0.0059 0.002,-0.0038 0.008,-0.01569 0.006,-0.01172 z m 0.39453,0.115234 c -0.002,5.41e-4 -0.004,0.0014 -0.006,0.002 -0.002,0.003 -0.004,0.0051 -0.006,0.0078 0.001,-6.73e-4 0.003,-0.0012 0.004,-0.002 0.003,-0.0018 0.004,-0.0036 0.008,-0.0078 z m -83.73047,0.03125 c -0.002,0.01211 -6.5e-4,0.02467 -0.006,0.03516 0.0103,0.0022 0.0209,0.0035 0.0293,0.0098 0.0371,0.02769 0.0618,0.06863 0.0937,0.101563 0.0169,0.0028 0.0161,0.0037 0.0312,0.0059 l -0.002,-0.002 c -0.10037,-0.08281 0.0452,0.03855 -0.0508,-0.04492 -0.003,-0.0028 0.0107,0.01246 0.008,0.0098 -0.0138,-0.01134 -0.0269,-0.02204 -0.0391,-0.03516 -0.008,-0.0084 -0.0127,-0.01778 -0.0195,-0.02734 -0.007,-0.0044 -0.0149,-0.01118 -0.0215,-0.01563 -0.0304,-0.05257 -0.0253,-0.04294 -0.0156,-0.03125 -0.003,-0.0011 -0.005,-0.0046 -0.008,-0.0059 z m 83.91602,0 c -0.006,-7.78e-4 -0.0134,0.004 -0.0156,0.0098 -0.001,0.0031 -1.7e-4,0.0061 -0.002,0.0098 0.004,-0.0033 0.01,-0.0062 0.0137,-0.0098 0.003,-0.0027 0.008,-0.0093 0.004,-0.0098 z m -83.57227,0.339844 c -0.003,0.0072 -0.002,0.0097 -0.006,0.01758 0.0125,0.0018 0.0261,0.002 0.0371,0.0078 0.007,0.0037 0.0111,0.01106 0.0176,0.01563 0.006,-0.0022 0.0149,0.002 0.0215,0 -0.008,-0.006 -0.0151,-0.01359 -0.0234,-0.01953 -0.009,-0.0053 -0.0184,-0.0013 -0.0469,-0.02148 z m 81.4668,0.160156 c -0.003,0.0012 -0.006,0.005 -0.008,0.0059 -0.004,0.01929 -0.0108,0.05641 -0.006,0.04297 0.0127,-0.03628 0.01,-0.03201 0.0137,-0.04883 z m 1.85352,0.494141 c -0.004,0.0016 -0.008,0.0023 -0.0117,0.0039 -0.003,0.0078 -0.007,0.01553 -0.01,0.02344 0.008,-0.0016 0.0156,-0.0043 0.0234,-0.0059 -5.8e-4,-0.0072 -0.001,-0.01433 -0.002,-0.02148 z m -1.14454,0.06641 c 0.008,0.007 0.0364,0.01815 0.043,0.01563 0.003,-0.0011 0.005,-0.0026 0.008,-0.0039 -0.021,-0.0048 -0.0554,-0.01594 -0.0508,-0.01172 z m -3.04882,0.113282 c -0.002,8.38e-4 -0.004,0.0011 -0.006,0.002 0.002,3.99e-4 0.004,0.0016 0.006,0.002 2e-4,-0.0012 -2.5e-4,-0.0026 0,-0.0039 z m -76.8125,0.113281 c 0.001,0.0019 0.0179,0.01462 0.0234,0.02539 0.003,-1.19e-4 0.007,1.38e-4 0.01,0 -0.0148,-0.01689 -0.0216,-0.02006 -0.0332,-0.02539 z m 39.46875,0.789062 c 2.34391,0.0038 4.65427,0.05544 4.96679,0.15625 0.30244,0.100813 2.17824,0.150974 7.71289,0.191407 4.06278,0.03025 7.17725,0.100298 7.00586,0.140624 -1.1291,0.31263 -1.8635,0.47461 -2.10547,0.47461 -0.15121,0 -0.35426,0.0414 -0.45507,0.0918 -0.0907,0.05041 -0.80469,0.191525 -1.58204,0.3125 -0.76618,0.1109 -1.83513,0.282314 -2.35937,0.373047 -0.52422,0.08065 -1.20928,0.201545 -1.51172,0.251953 -1.64325,0.272196 -4.29393,0.35107 -5.94726,0.179687 -1.20977,-0.131057 -10.82898,-0.119382 -12.04883,0.01172 -1.20976,0.131057 -4.29447,0.0392 -5.49414,-0.152344 -0.47383,-0.08065 -1.31076,-0.212002 -1.86524,-0.302734 -0.55447,-0.09074 -1.62311,-0.252071 -2.36914,-0.373047 -0.74601,-0.1109 -1.43044,-0.250374 -1.53125,-0.300781 -0.0907,-0.05041 -0.29215,-0.0918 -0.44336,-0.0918 -0.24196,0 -0.97832,-0.16198 -2.10742,-0.47461 -0.17139,-0.04032 2.933,-0.110386 7.00586,-0.140624 5.86734,-0.05052 7.44061,-0.08997 7.96484,-0.210938 0.44358,-0.09577 2.82016,-0.140498 5.16407,-0.136719 z"
       style="fill:#000000;stroke:none" />
    <path
       id="path10"
       transform="matrix(0.80000008,0,0,0.80000008,-1.2207032e-5,-1.5258791e-6)"
       d="m 372.50195,33.472656 c -0.0504,0 -0.0996,0.03912 -0.0996,0.09961 0,0.05041 0.0492,0.101562 0.0996,0.101562 0.0605,0 0.10157,-0.05116 0.10157,-0.101562 0,-0.06049 -0.0411,-0.09961 -0.10157,-0.09961 z"
       style="fill:#000000;stroke:none" />
    <path
       id="path4508"
       d="m 193.47754,23.217797 c 0.0472,-0.01181 0.0982,-0.01366 0.14172,-0.03543 0.0106,-0.0053 -0.008,-0.02708 0,-0.03543 0.008,-0.0084 0.027,0.0084 0.0354,0 0.0167,-0.0167 -0.0106,-0.04974 0,-0.07086 0.007,-0.01494 0.0279,-0.02049 0.0354,-0.03543 0.006,-0.01056 -0.008,-0.02708 0,-0.03543 0.008,-0.0084 0.0271,-0.0084 0.0354,0 0.008,0.0084 -0.008,0.02708 0,0.03543 0.0167,0.0167 0.0542,-0.0167 0.0709,0 0.008,0.0084 -0.008,0.02708 0,0.03543 0.0167,0.0167 0.0542,-0.0167 0.0709,0 0.008,0.0084 -0.008,0.02708 0,0.03543 0.008,0.0084 0.0271,-0.0084 0.0354,0 0.0167,0.0167 -0.0167,0.05416 0,0.07086 0.008,0.0084 0.027,-0.0084 0.0354,0 0.008,0.0084 -0.008,0.02708 0,0.03543 0.008,0.0084 0.0271,-0.0084 0.0354,0 0.0118,0.02362 0.0236,0.04724 0.0354,0.07086 0.0118,0 0.0271,-0.0084 0.0354,0 0.008,0.0084 -0.0118,0.03543 0,0.03543 0.0542,0 0.0354,-0.11318 0.0354,-0.141716"
       style="fill:none;fill-rule:evenodd;stroke:#000000;stroke-width:0.80000007px;stroke-linecap:butt;stroke-linejoin:miter;stroke-opacity:1" />
    <path
       id="path4597"
       d="m 184.30798,43.005139 c 0.10021,0 0.20042,0 0.30062,0 0.0167,0 0.0334,0 0.0501,0 0.008,0 0.0176,-0.0038 0.025,0 0.0106,0.0053 0.0133,0.02505 0.025,0.02505 0.0118,0 0.0145,-0.01977 0.025,-0.02505 0.0158,-0.0079 0.10946,0.0079 0.12527,0 0.0106,-0.0053 0.0145,-0.01977 0.025,-0.02505 0.0158,-0.0078 0.0845,0.0078 0.10021,0 0.0106,-0.0053 0.0145,-0.01977 0.025,-0.02505 0.01,-0.005 0.07,0.0051 0.0751,0 0.006,-0.0059 -0.006,-0.01914 0,-0.02505 0.006,-0.0059 0.0167,0 0.025,0 0.008,0 0.0167,0 0.025,0 0.0106,0 0.14286,0.0038 0.15031,0 0.0211,-0.01056 0.029,-0.03954 0.0501,-0.0501 0.0201,-0.01002 0.0551,0.01002 0.0751,0 0.0106,-0.0053 0.0145,-0.01977 0.025,-0.02505 0.007,-0.0038 0.0176,0.0038 0.025,0 0.0106,-0.0053 0.0145,-0.01977 0.025,-0.02505 0.008,-0.0038 0.0638,0 0.0752,0 0.0418,0 0.0835,0 0.12525,0 0.008,0 0.0167,0 0.025,0 0.008,0 0.0176,0.0038 0.025,0 0.0106,-0.0053 0.0145,-0.01977 0.025,-0.02505 0.015,-0.0074 0.0352,0.0074 0.0501,0 0.0554,-0.0277 0.008,-0.01555 0.025,-0.0501 0.0522,-0.10426 -0.002,0.02678 0.0501,-0.02505 0.006,-0.0059 -0.006,-0.01914 0,-0.02505 0.006,-0.0059 0.0191,0.0059 0.025,0 0.006,-0.0059 -0.004,-0.01758 0,-0.02505 0.006,-0.01056 0.0198,-0.01449 0.025,-0.02505 0.004,-0.0074 -0.006,-0.01914 0,-0.02505 0.006,-0.0059 0.0191,0.0059 0.025,0 0.006,-0.0059 -0.006,-0.01914 0,-0.02505 0.0118,-0.01181 0.0383,0.01181 0.0501,0 0.006,-0.0059 -0.006,-0.01914 0,-0.02506 8e-4,-0.0011 0.11345,0 0.12527,0 0.008,0 0.0191,-0.0059 0.025,0 0.006,0.0059 -0.006,0.01914 0,0.02506 0.002,0.0025 0.0726,0.0025 0.0751,0 0.006,-0.0059 -0.006,-0.01914 0,-0.02506 0.0219,-0.02189 0.0403,0.02506 0.0501,0.02506 0.0118,0 0.0145,-0.01977 0.025,-0.02506 0.006,-0.0033 0.0871,0 0.10021,0 0.0899,0 0.10824,0 0.15031,0 0.009,0 0.0992,-10e-4 0.10021,0 0.006,0.0059 -0.006,0.01914 0,0.02506 0.0196,0.01958 0.0436,-0.02179 0.0501,-0.02506 0.007,-0.0038 0.0167,0 0.025,0"
       style="fill:none;fill-rule:evenodd;stroke:#000000;stroke-width:0.80000007px;stroke-linecap:butt;stroke-linejoin:miter;stroke-opacity:1" />
    <path
       id="path4599"
       d="m 184.28293,43.456076 c 0.0334,-0.0167 0.0655,-0.03623 0.1002,-0.0501 0.0114,-0.0046 0.0833,0 0.10021,0 0.009,0 0.0866,-0.0045 0.10021,0 0.0177,0.0059 0.0324,0.01914 0.0501,0.02505 0.0158,0.0053 0.08,0 0.10021,0 0.008,0 0.0191,0.0059 0.025,0 0.006,-0.0059 -0.006,-0.01914 0,-0.02505 0.005,-0.0051 0.0652,0.005 0.0751,0 0.0106,-0.0053 0.0145,-0.01977 0.025,-0.02505 0.007,-0.0038 0.0176,0.0038 0.025,0 0.0619,-0.03096 -0.009,-0.02505 0.0501,-0.02505"
       style="fill:none;fill-rule:evenodd;stroke:#000000;stroke-width:0.80000007px;stroke-linecap:butt;stroke-linejoin:miter;stroke-opacity:1" />
    <path
       id="path4601"
       d="m 185.00943,43.305764 c 0.0334,-0.0334 0.0668,-0.06681 0.10021,-0.100209 0.008,0 0.0191,0.0059 0.025,0 0.0118,-0.01181 -0.0118,-0.0383 0,-0.0501 0.005,-0.0051 0.0652,0.005 0.0751,0 0.0106,-0.0053 0.0145,-0.01977 0.025,-0.02505 0.01,-0.005 0.07,0.0051 0.0751,0 0.006,-0.0059 -0.006,-0.01914 0,-0.02505 0.006,-0.006 0.0942,0.006 0.10021,0 0.006,-0.0059 -0.006,-0.01914 0,-0.02506 0.0118,-0.01181 0.0383,0.01181 0.0501,0 0.006,-0.0059 -0.006,-0.01914 0,-0.02505 0.0118,-0.01181 0.0352,0.0074 0.0501,0 0.10426,-0.05213 -0.0268,0.0018 0.025,-0.0501 0.006,-0.0059 0.0191,0.0059 0.025,0 0.006,-0.0059 -0.006,-0.01914 0,-0.02505 0.006,-0.0059 0.0191,0.0059 0.025,0 0.0518,-0.05183 -0.0792,0.002 0.025,-0.0501 0.015,-0.0074 0.0383,0.01181 0.0501,0 0.0518,-0.05183 -0.0792,0.002 0.025,-0.0501 0.0158,-0.0078 0.0845,0.0078 0.1002,0 0.10427,-0.05213 -0.0268,0.0018 0.025,-0.0501 0.0118,-0.01181 0.0383,0.01181 0.0501,0 0.0334,-0.0334 -0.0531,-0.02404 0.025,-0.0501 0.0158,-0.0053 0.0342,0.0053 0.0501,0 0.0224,-0.0074 0.0277,-0.04263 0.0501,-0.0501 0.0158,-0.0053 0.0352,0.0074 0.0501,0 0.007,-0.0038 -0.006,-0.01914 0,-0.02505 0.0118,-0.01181 0.0383,0.01181 0.0501,0 0.015,-0.01498 -0.0271,-0.0501 0.025,-0.0501 0.01,0 0.0282,0.04694 0.0501,0.02505 0.006,-0.0059 -0.006,-0.01914 0,-0.02505 0.0118,-0.01181 0.0383,0.01181 0.0501,0 0.006,-0.0059 -0.006,-0.01914 0,-0.02506 0.006,-0.0059 0.0191,0.0059 0.025,0 0.006,-0.0059 -0.006,-0.01914 0,-0.02505 0.005,-0.0051 0.0652,0.005 0.0752,0 0.0106,-0.0053 0.0145,-0.01977 0.025,-0.02505 0.007,-0.0038 0.0191,0.0059 0.025,0 0.006,-0.0059 -0.006,-0.01914 0,-0.02505 0.0518,-0.05183 -0.002,0.07921 0.0501,-0.02505 0.004,-0.0074 -0.006,-0.01914 0,-0.02505 0.0518,-0.05183 -0.002,0.07921 0.0501,-0.02506 0.004,-0.0074 -0.006,-0.01914 0,-0.02505 0.0118,-0.01181 0.0383,0.01181 0.0501,0 0.006,-0.0059 -0.006,-0.01914 0,-0.02505 0.006,-0.0059 0.0191,0.0059 0.025,0 0.006,-0.0059 -0.006,-0.01914 0,-0.02505 0.006,-0.0059 0.0191,0.0059 0.025,0 0.006,-0.0059 -0.006,-0.01914 0,-0.02505 0.006,-0.0059 0.025,-0.0084 0.025,0 0,0.0084 -0.0334,0 -0.025,0 0.14196,0 0.008,-0.0167 0.0501,0.02505 0.0587,0.05875 0,-0.07718 0,-0.02505 0,0.01867 0.0118,0.0369 0.025,0.0501 0.006,0.0059 0.0191,-0.0059 0.025,0 0.006,0.0059 -0.006,0.01914 0,0.02505 0.006,0.0059 0.0176,-0.0038 0.025,0 0.0106,0.0053 0.0167,0.0167 0.025,0.02505"
       style="fill:none;fill-rule:evenodd;stroke:#000000;stroke-width:0.80000007px;stroke-linecap:butt;stroke-linejoin:miter;stroke-opacity:1" />
    <path
       transform="matrix(0.80000008,0,0,0.80000008,-1.2207032e-5,-1.5258791e-6)"
       id="path4748"
       d="m 195.28672,50.342771 c -2.33701,-0.417468 -5.6134,-1.548844 -6.94829,-2.399328 -1.30447,-0.831105 -3.22665,-3.212388 -3.93646,-4.876668 -0.19952,-0.467799 -0.79735,-1.808784 -1.32852,-2.979967 -0.93176,-2.054469 -0.96863,-2.240227 -1.04737,-5.277218 -0.0808,-3.117817 -0.0729,-3.16979 0.83178,-5.45764 1.06144,-2.684203 3.33186,-6.237541 4.91195,-7.687502 1.40729,-1.291381 3.42359,-2.435166 5.46479,-3.099997 1.323,-0.430908 2.23096,-0.522926 5.13568,-0.520478 3.93696,0.0033 5.25738,0.259831 7.69776,1.495418 3.08798,1.563474 4.80672,3.436697 7.00541,7.635075 1.73134,3.305961 2.05168,4.63762 1.92286,7.993282 -0.0986,2.569292 -0.1814,2.954689 -1.04795,4.879284 -1.11879,2.484841 -3.22745,6.204808 -3.95821,6.98282 -0.74325,0.791314 -4.29588,2.463682 -6.21243,2.924434 -2.04945,0.492706 -6.71308,0.70608 -8.491,0.388485 z"
       style="fill:#e5aa71;fill-opacity:1" />
    <path
       transform="matrix(0.80000008,0,0,0.80000008,-1.2207032e-5,-1.5258791e-6)"
       id="path4750"
       d="m 217.60646,35.879734 c -0.10334,-0.05987 -0.28654,-0.139338 -0.4071,-0.176593 -0.19674,-0.06079 -0.2192,-0.271941 -0.2192,-2.060495 0,-1.582617 0.0372,-2.023601 0.18056,-2.142617 0.14979,-0.12431 0.20212,-0.0682 0.30695,0.329129 0.0695,0.263443 0.18635,1.099025 0.25965,1.85685 0.0733,0.757824 0.1613,1.589239 0.19557,1.847589 0.0638,0.480706 0.0126,0.536734 -0.31643,0.346137 z"
       style="fill:#e5aa71;fill-opacity:1" />
    <path
       transform="matrix(0.80000008,0,0,0.80000008,-1.2207032e-5,-1.5258791e-6)"
       id="path4754"
       d="m 194.60414,50.155036 c -2.64692,-0.575635 -5.73326,-1.79615 -6.79142,-2.685715 -0.77631,-0.652623 -1.79868,-1.838039 -2.49618,-2.894287 -0.67365,-1.020134 -2.65685,-5.393805 -2.94985,-6.505495 -0.27351,-1.037724 -0.41011,-5.385788 -0.20238,-6.441667 0.45968,-2.336472 2.8209,-6.737137 4.92777,-9.183974 0.82941,-0.963255 2.27857,-2.036165 3.79662,-2.810906 2.48258,-1.266989 3.80255,-1.542585 7.37997,-1.540861 3.36723,0.0016 4.99936,0.250535 6.82997,1.04162 3.61741,1.563238 5.82835,3.887049 8.18455,8.602394 1.11246,2.226299 1.43099,3.177942 1.61506,4.825138 0.19468,1.74217 -0.024,4.915077 -0.41862,6.072506 -0.35582,1.043771 -2.4705,5.218113 -3.42659,6.764054 -1.02209,1.652659 -1.41566,1.991169 -3.48923,3.00108 -3.26823,1.591765 -4.55458,1.87385 -8.91607,1.955209 -2.55075,0.04758 -3.01426,0.02476 -4.0436,-0.199096 z"
       style="fill:#e5aa71;fill-opacity:1" />
    <path
       transform="matrix(0.80000008,0,0,0.80000008,-1.2207032e-5,-1.5258791e-6)"
       id="path4756"
       d="m 195.32834,50.320798 c -1.72927,-0.294552 -4.94752,-1.366728 -6.4461,-2.147548 -1.05657,-0.550512 -2.40028,-1.869924 -3.38832,-3.327028 -0.64135,-0.945833 -2.51785,-4.87002 -3.00193,-6.277698 -0.44397,-1.291068 -0.60496,-5.968165 -0.25228,-7.329217 0.68035,-2.625563 3.29163,-7.221762 5.19723,-9.147828 1.92331,-1.94396 4.99131,-3.513618 7.556,-3.865819 1.25931,-0.172936 5.12679,-0.173466 6.69729,-9.18e-4 3.77397,0.414642 7.4523,2.750943 9.71248,6.168917 0.95669,1.446761 2.60297,4.652891 3.01897,5.879447 0.50056,1.475871 0.65039,3.205469 0.48262,5.5712 -0.16435,2.317496 -0.33789,2.891513 -1.69543,5.607839 -1.71062,3.422828 -2.94444,5.369377 -3.75698,5.927217 -0.68772,0.47215 -2.5857,1.42332 -3.81276,1.910757 -2.03858,0.809813 -4.31888,1.129306 -7.85866,1.101077 -1.17644,-0.0094 -2.2799,-0.04106 -2.45213,-0.0704 z"
       style="fill:#e5aa71;fill-opacity:1" />
    <path
       transform="matrix(0.80000008,0,0,0.80000008,-1.2207032e-5,-1.5258791e-6)"
       id="path4758"
       d="m 179.08788,35.424355 c 0.0392,-0.336053 0.10438,-1.005575 0.14481,-1.487827 0.0687,-0.818931 0.26296,-2.056786 0.37814,-2.409148 0.0278,-0.08496 0.13718,-0.1212 0.24312,-0.08054 0.16174,0.06207 0.19264,0.38176 0.19264,1.993523 l 0,1.919603 -0.34447,0.238512 c -0.70021,0.484835 -0.69142,0.487329 -0.61424,-0.174119 z"
       style="fill:#e5aa71;fill-opacity:1" />
    <path
       transform="matrix(0.80000008,0,0,0.80000008,-1.2207032e-5,-1.5258791e-6)"
       id="path4760"
       d="m 196.96093,15.841669 c -0.14116,-0.08928 -0.0396,-0.178931 0.43841,-0.38723 0.80309,-0.349921 1.33977,-0.346849 2.17478,0.01245 0.5496,0.236489 0.63151,0.308226 0.43841,0.384 -0.34471,0.135271 -2.83504,0.127746 -3.0516,-0.0092 z"
       style="fill:#e5aa71;fill-opacity:1" />
    <path
       transform="matrix(0.80000008,0,0,0.80000008,-1.2207032e-5,-1.5258791e-6)"
       id="path4762"
       d="m 177.66664,54.659259 c -2.68086,-0.07633 -3.25892,-0.130192 -4.572,-0.425979 -0.82672,-0.18623 -2.12316,-0.384747 -2.88099,-0.441151 -2.40514,-0.17901 -4.69678,-0.692324 -5.03148,-1.127025 -0.18689,-0.24272 -1.61673,-0.245262 -2.4215,-0.0043 -0.34627,0.103677 -1.21588,0.170999 -2.25469,0.174551 -2.01366,0.0069 -2.22771,-0.06107 -4.53579,-1.440155 -1.71731,-1.026094 -2.72798,-1.951748 -3.65732,-3.34968 -1.39407,-2.096977 -1.644,-3.295593 -1.51816,-7.280661 0.0806,-2.551694 0.10476,-2.750086 0.46582,-3.820438 0.66146,-1.960863 1.61576,-3.75997 2.81852,-5.313644 1.01137,-1.306446 1.19616,-1.480506 2.15568,-2.030508 1.47,-0.842609 3.06115,-1.214536 4.25102,-0.993666 0.5649,0.104859 0.93558,0.115521 1.14758,0.03301 0.17223,-0.06704 0.36445,-0.123586 0.42715,-0.125666 0.0627,-0.0021 0.1588,-0.08385 0.21357,-0.181712 0.0548,-0.09786 0.48259,-0.339002 0.95071,-0.535869 0.46813,-0.196866 0.87932,-0.390894 0.91377,-0.431173 0.15112,-0.17671 0.76116,-0.492553 1.69101,-0.875508 0.55115,-0.226987 1.143,-0.511391 1.31524,-0.632008 0.43779,-0.306597 4.76326,-1.597403 6.57451,-1.961966 2.07509,-0.417669 4.7027,-0.782754 6.64045,-0.922636 0.89561,-0.06465 2.09341,-0.154806 2.66178,-0.200339 0.56837,-0.04553 1.03339,-0.05242 1.03339,-0.01531 0,0.03712 -0.32966,0.594749 -0.73259,1.239186 -1.13893,1.821611 -2.64943,4.842262 -2.64943,5.298256 0,0.182884 -0.0609,0.165966 -0.3854,-0.107089 -0.54452,-0.458188 -1.26413,-0.447675 -1.73718,0.02538 -0.51174,0.511741 -0.94998,2.18511 -1.08231,4.132688 -0.0408,0.600451 -0.15116,1.521356 -0.24525,2.046456 -0.22148,1.236045 -0.0972,1.692959 0.6798,2.499074 0.70491,0.731337 1.14848,0.806295 1.75437,0.296472 l 0.38111,-0.320686 0.0702,0.352001 c 0.0386,0.193601 0.21116,0.622498 0.38344,0.953105 0.17227,0.330606 0.44497,0.950644 0.60598,1.377863 0.37045,0.98289 1.71833,3.675872 2.65054,5.295633 1.29206,2.245015 1.61206,2.62404 2.97294,3.521366 1.58161,1.042864 2.31652,1.36927 4.84939,2.153825 2.2828,0.707097 4.02663,0.944287 6.88932,0.937058 2.92586,-0.0074 4.5261,-0.208794 6.63879,-0.835558 1.06784,-0.316794 2.28721,-0.7128 2.70969,-0.880015 0.84647,-0.33502 3.08521,-1.669551 3.59801,-2.144796 0.65342,-0.605567 2.89738,-4.386286 3.53556,-5.956856 0.17467,-0.429857 0.39591,-0.901334 0.49165,-1.047727 0.31451,-0.480924 1.29446,-2.788762 1.38176,-3.25415 l 0.0855,-0.45565 0.37155,0.312636 c 0.74374,0.62581 1.6171,0.288773 2.30839,-0.890823 0.26217,-0.447357 0.31132,-0.662404 0.2618,-1.145455 -0.45548,-4.442979 -0.66791,-5.704774 -1.10639,-6.571691 -0.12951,-0.256046 -0.34431,-0.52379 -0.47734,-0.594986 -0.37981,-0.203264 -1.03515,-0.151312 -1.47509,0.116934 -0.44444,0.270984 -0.43782,0.275314 -0.66302,-0.434273 -0.29009,-0.914085 -1.9715,-4.048341 -2.91081,-5.425932 l -0.36873,-0.540781 1.2331,0.07771 c 5.84622,0.368445 9.08018,0.896767 13.09794,2.139775 1.78186,0.551266 4.73215,1.820141 4.73215,2.035223 0,0.05711 0.26774,0.237085 0.59499,0.399936 0.32724,0.162852 0.74638,0.446736 0.93143,0.630854 0.48991,0.487446 2.23417,0.847762 3.02801,0.625501 0.63394,-0.177493 1.43408,-0.10156 2.67786,0.25413 1.43075,0.409158 2.84064,1.440164 4.00584,2.929342 0.83465,1.066726 2.15808,3.72553 2.62151,5.266677 0.3199,1.063857 0.34186,1.300164 0.38995,4.196219 0.0577,3.475702 -0.0347,4.149317 -0.7685,5.604558 -0.81738,1.620917 -2.31853,3.361846 -3.45772,4.010028 -0.31142,0.177195 -0.96911,0.568794 -1.46154,0.87022 -1.54281,0.944398 -2.10952,1.097463 -4.05246,1.09456 -1.27321,-0.0019 -1.88541,-0.05984 -2.47782,-0.234474 -0.85147,-0.251006 -0.72572,-0.271986 -1.93646,0.323092 -0.11994,0.05895 -0.57087,0.162157 -1.00209,0.229354 -0.4312,0.0672 -1.20677,0.210562 -1.72347,0.318593 -0.5167,0.108029 -1.61585,0.2466 -2.44257,0.307934 -0.82672,0.06133 -2.15135,0.259523 -2.94362,0.440421 -1.35347,0.309037 -1.7483,0.336948 -6.53569,0.462016 -3.62257,0.09464 -6.3378,0.09405 -9.39452,-0.002 -5.30067,-0.166609 -13.56514,-0.179155 -17.57691,-0.02668 -3.37941,0.128438 -8.14618,0.127468 -12.71392,-0.0026 l 0,7e-6 z"
       style="fill:#c483c0;fill-opacity:1" />
    <path
       transform="matrix(0.80000008,0,0,0.80000008,-1.2207032e-5,-1.5258791e-6)"
       id="path4764"
       d="m 204.09656,58.40722 c -0.86117,-0.05774 -5.06052,-0.09207 -9.33189,-0.07629 l -7.76614,0.02869 -3.00625,-0.541823 c -1.65343,-0.298002 -3.28808,-0.593142 -3.63254,-0.655866 -1.41828,-0.258257 -1.43293,-0.343088 -0.0626,-0.362647 0.72337,-0.01032 4.02085,-0.08076 7.32772,-0.156532 7.59643,-0.17405 14.30008,-0.173838 21.79529,6.89e-4 3.23798,0.0754 6.47909,0.146279 7.20247,0.157516 l 1.31523,0.02043 -0.68893,0.165314 c -3.43201,0.823536 -8.91261,1.594419 -10.96028,1.541637 -0.34446,-0.0089 -1.33089,-0.06338 -2.19205,-0.121124 z"
       style="fill:#1320f1;fill-opacity:1" />
    <path
       transform="matrix(0.80000008,0,0,0.80000008,-1.2207032e-5,-1.5258791e-6)"
       id="path4774"
       d="m 160.80033,26.378381 c 0,-0.143956 0.11323,-0.841499 0.25162,-1.550096 0.15098,-0.773043 0.3025,-2.31544 0.37881,-3.856195 0.07,-1.41231 0.18196,-3.328792 0.24891,-4.25885 0.067,-0.930057 0.12392,-2.564704 0.1266,-3.632548 0.003,-1.071167 0.082,-2.374236 0.177,-2.906766 0.20308,-1.1388739 0.8276,-2.4867893 1.64207,-3.5441377 0.31841,-0.4133589 0.68093,-0.9822612 0.8056,-1.2642272 0.12467,-0.281966 0.5284,-0.8308773 0.89718,-1.219803 0.65678,-0.6926598 0.69444,-0.7122274 1.8391,-0.9557555 0.64272,-0.1367399 1.8828,-0.4816341 2.75573,-0.7664314 0.87292,-0.2847973 1.91548,-0.5481864 2.31679,-0.5853092 l 0.72966,-0.067496 0.65808,0.6959061 c 0.7554,0.7988262 1.51018,2.1589645 1.64055,2.9563373 0.0492,0.3007756 0.19171,0.7798961 0.31673,1.0647123 0.34094,0.7766868 1.06912,3.7161633 1.30743,5.2777383 0.27946,1.831306 0.32025,6.246233 0.0755,8.176491 -0.20013,1.578577 -0.0863,1.44781 -1.38669,1.592916 -1.8827,0.210081 -5.60888,1.148173 -7.91456,1.992547 -1.45344,0.532271 -3.58928,1.533463 -4.98725,2.337812 -0.58559,0.336931 -1.2479,0.649117 -1.4718,0.693748 -0.3553,0.07082 -0.4071,0.04784 -0.4071,-0.180593 z"
       style="fill:#9d9b99;fill-opacity:1" />
    <g
       id="g4778">
      <path
         style="fill:#9d9b99;fill-opacity:1"
         d="m 234.67784,26.042021 c -4.59191,-2.505742 -8.22925,-3.703503 -14.08333,-4.637589 l -0.39339,-0.06277 -0.16335,-1.280814 c -0.24756,-1.941175 -0.22482,-6.117955 0.0425,-7.794348 0.4633,-2.9059364 0.74004,-4.0782917 1.45537,-6.1652979 0.81693,-2.3834135 1.11381,-2.9684773 1.91577,-3.775311 0.54255,-0.5458547 0.5431,-0.546061 1.29434,-0.4829621 0.41336,0.034719 1.5407,0.3158391 2.50521,0.624711 0.9645,0.3088719 2.18256,0.6551121 2.70679,0.7694226 0.52423,0.1143105 1.03714,0.2762151 1.13978,0.3597879 0.10265,0.083573 0.54675,0.6592546 0.98691,1.2792929 0.44015,0.6200384 1.01411,1.4024238 1.27547,1.7386344 0.80204,1.031732 1.43789,2.2347974 1.59763,3.0228254 0.0836,0.4124958 0.19772,2.2155378 0.25356,4.0067598 0.16669,5.346577 0.45919,9.763057 0.74071,11.183921 0.14039,0.708597 0.25526,1.399095 0.25526,1.534438 0,0.384616 -0.38436,0.304006 -1.52918,-0.320702 z"
         id="path4776"
         transform="matrix(0.80000008,0,0,0.80000008,-1.2207032e-5,-1.5258791e-6)" />
    </g>
  </g>
</svg>
