<?xml version="1.0" encoding="UTF-8" standalone="no"?>
<svg
   xmlns:dc="http://purl.org/dc/elements/1.1/"
   xmlns:cc="http://creativecommons.org/ns#"
   xmlns:rdf="http://www.w3.org/1999/02/22-rdf-syntax-ns#"
   xmlns:svg="http://www.w3.org/2000/svg"
   xmlns="http://www.w3.org/2000/svg"
   xmlns:sodipodi="http://sodipodi.sourceforge.net/DTD/sodipodi-0.dtd"
   xmlns:inkscape="http://www.inkscape.org/namespaces/inkscape"
   height="65.039413"
   width="65.039413"
   id="svg2"
   viewBox="0 0 65.039413 65.039413"
   version="1.1"
   inkscape:version="0.91 r13725"
   sodipodi:docname="blue-loudspeaker-4.svg">
  <sodipodi:namedview
     pagecolor="#ffffff"
     bordercolor="#666666"
     borderopacity="1"
     objecttolerance="10"
     gridtolerance="10"
     guidetolerance="10"
     inkscape:pageopacity="0"
     inkscape:pageshadow="2"
     inkscape:window-width="1920"
     inkscape:window-height="1056"
     id="namedview33"
     showgrid="false"
     fit-margin-top="0"
     fit-margin-left="0"
     fit-margin-right="0"
     fit-margin-bottom="0"
     inkscape:zoom="2.6516854"
     inkscape:cx="-87.781342"
     inkscape:cy="30.499999"
     inkscape:window-x="0"
     inkscape:window-y="24"
     inkscape:window-maximized="1"
     inkscape:current-layer="svg2" />
  <defs
     id="defs4">
    <filter
       id="filter3830"
       height="1.1157"
       width="1.2311"
       y="-0.057858001"
       x="-0.11556">
      <feGaussianBlur
         id="feGaussianBlur3832"
         stdDeviation="0.86590833" />
    </filter>
    <linearGradient
       id="linearGradient3985"
       y2="1004.1"
       gradientUnits="userSpaceOnUse"
       x2="-44.414001"
       y1="1026"
       x1="-49.006001">
      <stop
         id="stop3618-4"
         style="stop-color:#00195d"
         offset="0" />
      <stop
         id="stop3620-0"
         style="stop-color:#00195d;stop-opacity:0"
         offset="1" />
    </linearGradient>
    <linearGradient
       id="linearGradient3987"
       y2="1078.1"
       gradientUnits="userSpaceOnUse"
       x2="-27.639"
       y1="981.66998"
       x1="-53.706001">
      <stop
         id="stop3673-8"
         style="stop-color:#003380"
         offset="0" />
      <stop
         id="stop3675-8"
         style="stop-color:#003380;stop-opacity:0"
         offset="1" />
    </linearGradient>
    <linearGradient
       id="linearGradient3989"
       y2="1015"
       gradientUnits="userSpaceOnUse"
       x2="-44.509998"
       y1="995.67999"
       x1="-48.639">
      <stop
         id="stop3633-5"
         style="stop-color:#ffffff"
         offset="0" />
      <stop
         id="stop3635-5"
         style="stop-color:#ffffff;stop-opacity:0"
         offset="1" />
    </linearGradient>
    <filter
       id="filter4034">
      <feGaussianBlur
         id="feGaussianBlur4036"
         stdDeviation="0.7523968" />
    </filter>
  </defs>
  <g
     id="layer1"
     transform="matrix(0.70710678,-0.70710678,0.70710678,0.70710678,-713.27694,-664.87274)">
    <g
       id="g4018"
       style="stroke:#000000;filter:url(#filter4034)">
      <path
         id="path4020"
         style="fill:none;stroke:#000000;stroke-width:1.70000005"
         d="m 36.226,1006.6 c 0,0 6.2386,4.4913 6.2386,13.928 0,9.4368 -6.2386,13.625 -6.2386,13.625"
         inkscape:connector-curvature="0" />
      <path
         id="path4022"
         style="fill:none;stroke:#000000;stroke-width:1.70000005"
         d="m 43.783,1000.5 c 0,0 6.8068,6.4701 6.8068,20.065 0,13.5949 -6.8068,19.629 -6.8068,19.629"
         inkscape:connector-curvature="0" />
      <path
         id="path4024"
         style="fill:none;stroke:#000000;stroke-width:1.70000005"
         d="m 50.505,994.35 c 0,0 8.6388,8.4794 8.6388,26.296 0,17.8166 -8.6388,25.725 -8.6388,25.725"
         inkscape:connector-curvature="0" />
    </g>
    <g
       id="g3884"
       transform="translate(-12,0)">
      <path
         id="path3793"
         style="fill:#000000;filter:url(#filter3830)"
         transform="matrix(1.6479,0,0,1.6479,118.04,-702.69)"
         d="m -45.101,1027.7 c -0.26968,-0.022 -0.65124,0.133 -1.1875,0.5 -2.145,1.4681 -9.9375,9.9688 -9.9375,9.9688 -0.06797,0 -0.12153,0.024 -0.1875,0.031 l -6.0066,0 0,14.938 6.1941,0 c 0,0 7.6541,8.5319 9.9375,10 2.2834,1.4681 1.8125,-0.8131 1.8125,-1.8125 l 0,-31.344 c 0,-0.7496 0.18406,-2.2145 -0.625,-2.2813 l 0,2e-4 z"
         inkscape:connector-curvature="0" />
      <g
         id="g3705"
         transform="matrix(1.662,0,0,1.662,103.97,-660.54)">
        <path
           id="path3624"
           style="fill:#00aad4"
           d="m -36.087,993.64 c -0.26968,-0.0222 -0.65124,0.13298 -1.1875,0.5 -2.145,1.4681 -9.9375,9.9688 -9.9375,9.9688 -0.06797,0 -0.12153,0.024 -0.1875,0.031 l -6.0066,0 0,14.938 6.1941,0 c 0,0 7.6541,8.5319 9.9375,10 2.2834,1.4681 1.8125,-0.8131 1.8125,-1.8125 l 0,-31.344 c 0,-0.74962 0.18406,-2.2145 -0.625,-2.2812 l 0,2e-4 z"
           inkscape:connector-curvature="0" />
        <path
           id="path2842"
           style="fill:url(#linearGradient3985);stroke:url(#linearGradient3987);stroke-width:0.60000002"
           d="m -36.087,993.64 c -0.26968,-0.0222 -0.65124,0.13298 -1.1875,0.5 -2.145,1.4681 -9.9375,9.9688 -9.9375,9.9688 -0.06797,0 -0.12153,0.024 -0.1875,0.031 l -6.0066,0 0,14.938 6.1941,0 c 0,0 7.6541,8.5319 9.9375,10 2.2834,1.4681 1.8125,-0.8131 1.8125,-1.8125 l 0,-31.344 c 0,-0.74962 0.18406,-2.2145 -0.625,-2.2812 l 0,2e-4 z"
           inkscape:connector-curvature="0" />
        <path
           id="rect2830"
           style="fill:url(#linearGradient3989)"
           d="m -36.824,995.37 c -0.24164,-0.0198 -0.58351,0.11916 -1.064,0.448 -1.9219,1.3154 -9.1086,9.2389 -9.1086,9.2389 -0.0609,0 -0.10889,0.022 -0.168,0.028 l -5.404,0 0,9.9401 c 3.0781,-0.4691 6.3508,-1.1921 9.7159,-2.1561 2.2372,-0.641 4.4581,-1.4609 6.4863,-2.2303 l 0.10233,-13.225 c 0,-0.67166 0.16491,-1.9842 -0.56,-2.044 l 0,-1.3e-4 z"
           inkscape:connector-curvature="0" />
      </g>
    </g>
    <g
       id="g4013"
       style="stroke:#333333">
      <path
         id="path4005"
         style="fill:none;stroke:#333333;stroke-width:1.70000005"
         d="m 36.226,1006.6 c 0,0 6.2386,4.4913 6.2386,13.928 0,9.4368 -6.2386,13.625 -6.2386,13.625"
         inkscape:connector-curvature="0" />
      <path
         id="path4007"
         style="fill:none;stroke:#333333;stroke-width:1.70000005"
         d="m 43.783,1000.5 c 0,0 6.8068,6.4701 6.8068,20.065 0,13.5949 -6.8068,19.629 -6.8068,19.629"
         inkscape:connector-curvature="0" />
      <path
         id="path4009"
         style="fill:none;stroke:#333333;stroke-width:1.70000005"
         d="m 50.505,994.35 c 0,0 8.6388,8.4794 8.6388,26.296 0,17.8166 -8.6388,25.725 -8.6388,25.725"
         inkscape:connector-curvature="0" />
    </g>
  </g>
  <metadata
     id="metadata33">
    <rdf:RDF>
      <cc:Work>
        <dc:format>image/svg+xml</dc:format>
        <dc:type
           rdf:resource="http://purl.org/dc/dcmitype/StillImage" />
        <cc:license
           rdf:resource="http://creativecommons.org/publicdomain/zero/1.0/" />
        <dc:publisher>
          <cc:Agent
             rdf:about="http://openclipart.org/">
            <dc:title>Openclipart</dc:title>
          </cc:Agent>
        </dc:publisher>
        <dc:title></dc:title>
        <dc:date>2011-02-14T18:21:12</dc:date>
        <dc:description>A simply speaker graphic.</dc:description>
        <dc:source>https://openclipart.org/detail/118303/unmute-by-keddec</dc:source>
        <dc:creator>
          <cc:Agent>
            <dc:title>Keddec</dc:title>
          </cc:Agent>
        </dc:creator>
        <dc:subject>
          <rdf:Bag>
            <rdf:li>sound mute speaker</rdf:li>
          </rdf:Bag>
        </dc:subject>
      </cc:Work>
      <cc:License
         rdf:about="http://creativecommons.org/publicdomain/zero/1.0/">
        <cc:permits
           rdf:resource="http://creativecommons.org/ns#Reproduction" />
        <cc:permits
           rdf:resource="http://creativecommons.org/ns#Distribution" />
        <cc:permits
           rdf:resource="http://creativecommons.org/ns#DerivativeWorks" />
      </cc:License>
    </rdf:RDF>
  </metadata>
</svg>
